{
  "data": {
    "adult": false,
    "backdrop_path": "/odLX1trQSUsPQvIB5FZgwFHEmXK.jpg",
    "belongs_to_collection": {
      "id": 91663,
      "name": "Airplane Collection",
      "poster_path": "/r3YMjy0g23hwz5zcH8anK2EzYey.jpg",
      "backdrop_path": "/w7bNIqVMZaaWf1LnMIZ1HywXbP8.jpg"
    },
    "budget": 3500000,
    "genres": [
      {
        "id": 35,
        "name": "Comedy"
      }
    ],
    "homepage": "",
    "id": 813,
    "imdb_id": "tt0080339",
    "original_language": "en",
    "original_title": "Airplane!",
    "overview": "Alcoholic pilot, Ted Striker has developed a fear of flying due to wartime trauma, but nevertheless boards a passenger jet in an attempt to woo back his stewardess girlfriend. Food poisoning decimates the passengers and crew, leaving it up to Striker to land the plane with the help of a glue-sniffing air traffic controller and Striker's vengeful former Air Force captain, who must both talk him down.",
    "popularity": 16.087,
    "poster_path": "/hiURvJjCgk0s10urHVCg80TFF11.jpg",
    "production_companies": [
      {
        "id": 4,
        "logo_path": "/fycMZt242LVjagMByZOLUGbCvv3.png",
        "name": "Paramount",
        "origin_country": "US"
      }
    ],
    "production_countries": [
      {
        "iso_3166_1": "US",
        "name": "United States of America"
      }
    ],
    "release_date": "1980-07-02",
    "revenue": 83453539,
    "runtime": 88,
    "spoken_languages": [
      {
        "iso_639_1": "en",
        "name": "English"
      }
    ],
    "status": "Released",
    "tagline": "What's slower than a speeding bullet, and able to hit tall buildings at a single bound?",
    "title": "Airplane!",
    "video": false,
    "vote_average": 7.3,
    "vote_count": 2807
  },
  "headers": {
    "content-type": "application/json;charset=utf-8",
    "transfer-encoding": "chunked",
    "connection": "close",
    "date": "Mon, 26 Oct 2020 16:30:22 GMT",
    "server": "openresty",
    "access-control-allow-origin": "*",
    "access-control-allow-methods": "GET, HEAD, POST, PUT, DELETE, OPTIONS",
    "access-control-expose-headers": "ETag, X-RateLimit-Limit, X-RateLimit-Remaining, X-RateLimit-Reset, Retry-After, Content-Length, Content-Range",
    "cache-control": "public, max-age=21600",
    "x-memc": "HIT",
    "x-memc-key": "a13a07510fb39e1052f1db0c4987c325",
    "x-memc-age": "2902",
    "x-memc-expires": "18698",
    "etag": "W/\"f0384f3498eaed951502adb3f51fba9b\"",
    "last-modified": "Mon, 26 Oct 2020 16:30:22 GMT",
    "content-encoding": "br",
    "vary": "Accept-Encoding",
    "x-cache": "Miss from cloudfront",
    "via": "1.1 d3039ad83798b26ecb9f9f1e666afe27.cloudfront.net (CloudFront)",
    "x-amz-cf-pop": "FRA6-C1",
    "x-amz-cf-id": "qVaaqGMNSq2b-9A_e25_3Ha0_K0CMe6FHJ8-mIEnYPC-m35JCMKfNw=="
  }
}