{
  "data": {
    "adult": false,
    "backdrop_path": null,
    "belongs_to_collection": null,
    "budget": 0,
    "genres": [
      {
        "id": 35,
        "name": "Comedy"
      }
    ],
    "homepage": "http://www.cc.com/shows/96bf2966-d454-474a-9b0f-f2908c348fda",
    "id": 508714,
    "imdb_id": "tt7962784",
    "original_language": "en",
    "original_title": "Ali Siddiq: It's Bigger Than These Bars",
    "overview": "Shot at Bell County Jail in Texas, Ali Siddiq: It's Bigger Than These Bars shares Ali's hilarious experiences of both incarceration and freedom. Siddiq talks with jailers and the jailed about life in lockup, and explains why dousing yourself in baby oil and refusing to leave your cell is always a bad idea. Encouraging and inspiring his convict audience, Ali makes hard laughs out of hard time, restoring faith in the power of second chances.",
    "popularity": 3.811,
    "poster_path": "/gKbg0dfuky35wbSXrsWVeuWfAY9.jpg",
    "production_companies": [
      {
        "id": 45852,
        "logo_path": null,
        "name": "Comedy Partners",
        "origin_country": "US"
      }
    ],
    "production_countries": [
      {
        "iso_3166_1": "US",
        "name": "United States of America"
      }
    ],
    "release_date": "2018-02-23",
    "revenue": 0,
    "runtime": 60,
    "spoken_languages": [
      {
        "iso_639_1": "en",
        "name": "English"
      }
    ],
    "status": "Released",
    "tagline": "",
    "title": "Ali Siddiq: It's Bigger Than These Bars",
    "video": false,
    "vote_average": 7,
    "vote_count": 2
  },
  "headers": {
    "content-type": "application/json;charset=utf-8",
    "transfer-encoding": "chunked",
    "connection": "close",
    "date": "Tue, 20 Oct 2020 14:22:12 GMT",
    "server": "openresty",
    "access-control-allow-origin": "*",
    "access-control-allow-methods": "GET, HEAD, POST, PUT, DELETE, OPTIONS",
    "access-control-expose-headers": "ETag, X-RateLimit-Limit, X-RateLimit-Remaining, X-RateLimit-Reset, Retry-After, Content-Length, Content-Range",
    "cache-control": "public, max-age=21600",
    "x-memc": "MISS, STORE",
    "x-memc-key": "24089ee2a3b92af7ca88631d25b97c44",
    "x-memc-age": "0",
    "x-memc-expires": "21600",
    "last-modified": "2018-03-02 13:22:43 +0000",
    "content-encoding": "br",
    "vary": "Accept-Encoding",
    "x-cache": "Miss from cloudfront",
    "via": "1.1 969e7c67b62bdfae78f727a06e4512c3.cloudfront.net (CloudFront)",
    "x-amz-cf-pop": "TXL52-C1",
    "x-amz-cf-id": "WDPMj79UO9RhFtJc16Ik7II2ZYSfQIte5orGqkkspsdC1ZH82wCQ_Q=="
  }
}