{
  "data": {
    "adult": false,
    "backdrop_path": "/xAYHSGbGDPfKVvDEdKrMTOuQNWi.jpg",
    "belongs_to_collection": {
      "id": 2806,
      "name": "American Pie Collection",
      "poster_path": "/twY1eM88fu8CCGVtem5ItlrgeDA.jpg",
      "backdrop_path": "/3ptXtaqzAZlMXn3nZxaYke4anmK.jpg"
    },
    "budget": 30000000,
    "genres": [
      {
        "id": 35,
        "name": "Comedy"
      },
      {
        "id": 10749,
        "name": "Romance"
      }
    ],
    "homepage": "",
    "id": 2770,
    "imdb_id": "tt0252866",
    "original_language": "en",
    "original_title": "American Pie 2",
    "overview": "The whole gang are back and as close as ever. They decide to get even closer by spending the summer together at a beach house. They decide to hold the biggest party ever to be seen, even if the preparation doesn't always go to plan. Especially when Stifler, Finch and Jim become more close to each other than they ever want to be and when Jim mistakes super glue for lubricant...",
    "popularity": 48.373,
    "poster_path": "/wa3vePBNEfAJtzXs8WFTyD7bliD.jpg",
    "production_companies": [
      {
        "id": 33,
        "logo_path": "/8lvHyhjr8oUKOOy2dKXoALWKdp0.png",
        "name": "Universal Pictures",
        "origin_country": "US"
      },
      {
        "id": 2200,
        "logo_path": null,
        "name": "Liveplanet",
        "origin_country": ""
      },
      {
        "id": 3169,
        "logo_path": null,
        "name": "Zide-Perry Productions",
        "origin_country": ""
      }
    ],
    "production_countries": [
      {
        "iso_3166_1": "US",
        "name": "United States of America"
      }
    ],
    "release_date": "2001-08-10",
    "revenue": 287553595,
    "runtime": 108,
    "spoken_languages": [
      {
        "iso_639_1": "en",
        "name": "English"
      }
    ],
    "status": "Released",
    "tagline": "This Summer It's All About Sticking Together.",
    "title": "American Pie 2",
    "video": false,
    "vote_average": 6.2,
    "vote_count": 3423
  },
  "headers": {
    "content-type": "application/json;charset=utf-8",
    "transfer-encoding": "chunked",
    "connection": "close",
    "date": "Tue, 20 Oct 2020 14:15:20 GMT",
    "server": "openresty",
    "access-control-allow-origin": "*",
    "access-control-allow-methods": "GET, HEAD, POST, PUT, DELETE, OPTIONS",
    "access-control-expose-headers": "ETag, X-RateLimit-Limit, X-RateLimit-Remaining, X-RateLimit-Reset, Retry-After, Content-Length, Content-Range",
    "cache-control": "public, max-age=21600",
    "x-memc": "HIT",
    "x-memc-key": "3bf1bc1c56a10b97c89421e0a87231c7",
    "x-memc-age": "40",
    "x-memc-expires": "21560",
    "etag": "W/\"586becff509ab3728657ab0bb7879bfb\"",
    "last-modified": "Tue, 20 Oct 2020 14:15:20 GMT",
    "content-encoding": "br",
    "vary": "Accept-Encoding",
    "x-cache": "Miss from cloudfront",
    "via": "1.1 c6649c9545bbfa66bc79c9ba552d7a4a.cloudfront.net (CloudFront)",
    "x-amz-cf-pop": "TXL52-C1",
    "x-amz-cf-id": "MaPrhvGASHLysfIVhHrPOXQEMQpfvnuzCQDbDOcmYuywVLOqZdpPxw=="
  }
}