{
  "data": {
    "adult": false,
    "backdrop_path": "/a7sAqMKv5tkAdMzFfIhPqIBmQ9g.jpg",
    "belongs_to_collection": {
      "id": 422834,
      "name": "Ant-Man Collection",
      "poster_path": "/s0Sl2YemtW2ZwhkrrKksbTUja1L.jpg",
      "backdrop_path": "/2KjtWUBiksmN8LsUouaZnxocu5N.jpg"
    },
    "budget": 130000000,
    "genres": [
      {
        "id": 878,
        "name": "Science Fiction"
      },
      {
        "id": 28,
        "name": "Action"
      },
      {
        "id": 12,
        "name": "Adventure"
      }
    ],
    "homepage": "http://marvel.com/movies/movie/180/ant-man",
    "id": 102899,
    "imdb_id": "tt0478970",
    "original_language": "en",
    "original_title": "Ant-Man",
    "overview": "Armed with the astonishing ability to shrink in scale but increase in strength, master thief Scott Lang must embrace his inner-hero and help his mentor, Doctor Hank Pym, protect the secret behind his spectacular Ant-Man suit from a new generation of towering threats. Against seemingly insurmountable obstacles, Pym and Lang must plan and pull off a heist that will save the world.",
    "popularity": 41.051,
    "poster_path": "/rQRnQfUl3kfp78nCWq8Ks04vnq1.jpg",
    "production_companies": [
      {
        "id": 420,
        "logo_path": "/hUzeosd33nzE5MCNsZxCGEKTXaQ.png",
        "name": "Marvel Studios",
        "origin_country": "US"
      }
    ],
    "production_countries": [
      {
        "iso_3166_1": "US",
        "name": "United States of America"
      }
    ],
    "release_date": "2015-07-14",
    "revenue": 519311965,
    "runtime": 117,
    "spoken_languages": [
      {
        "iso_639_1": "en",
        "name": "English"
      }
    ],
    "status": "Released",
    "tagline": "Heroes don't get any bigger.",
    "title": "Ant-Man",
    "video": false,
    "vote_average": 7.1,
    "vote_count": 14621
  },
  "headers": {
    "content-type": "application/json;charset=utf-8",
    "transfer-encoding": "chunked",
    "connection": "close",
    "date": "Tue, 20 Oct 2020 14:04:42 GMT",
    "server": "openresty",
    "access-control-allow-origin": "*",
    "access-control-allow-methods": "GET, HEAD, POST, PUT, DELETE, OPTIONS",
    "access-control-expose-headers": "ETag, X-RateLimit-Limit, X-RateLimit-Remaining, X-RateLimit-Reset, Retry-After, Content-Length, Content-Range",
    "cache-control": "public, max-age=21600",
    "x-memc": "HIT",
    "x-memc-key": "7d853137996ab9dbe59f962367d37089",
    "x-memc-age": "7078",
    "x-memc-expires": "14522",
    "etag": "W/\"72f31526d89121cf2a540b653e7b6748\"",
    "last-modified": "Tue, 20 Oct 2020 14:04:42 GMT",
    "content-encoding": "br",
    "vary": "Accept-Encoding",
    "x-cache": "Miss from cloudfront",
    "via": "1.1 a477b8537c9bc4c10a3c144386a7b5bf.cloudfront.net (CloudFront)",
    "x-amz-cf-pop": "TXL52-C1",
    "x-amz-cf-id": "eZjpOPJAsmsISJrHb4J76m3puwpq2Sk_AitoddaEsehlrFFE9sdODA=="
  }
}