{
  "data": {
    "adult": false,
    "backdrop_path": "/sA50fD5aLbYPRU0fMCHIZ88gc5g.jpg",
    "belongs_to_collection": null,
    "budget": 0,
    "genres": [
      {
        "id": 28,
        "name": "Action"
      },
      {
        "id": 16,
        "name": "Animation"
      },
      {
        "id": 10751,
        "name": "Family"
      }
    ],
    "homepage": "",
    "id": 581997,
    "imdb_id": "tt9775360",
    "original_language": "en",
    "original_title": "Batman vs. Teenage Mutant Ninja Turtles",
    "overview": "Batman, Batgirl and Robin forge an alliance with the Teenage Mutant Ninja Turtles to fight against the Turtles' sworn enemy, The Shredder, who has apparently teamed up with Ra's Al Ghul and The League of Assassins.",
    "popularity": 38.801,
    "poster_path": "/yP3h0Pu8htyb9450mWJ9Vu1rU.jpg",
    "production_companies": [
      {
        "id": 2785,
        "logo_path": "/l5zW8jjmQOCx2dFmvnmbYmqoBmL.png",
        "name": "Warner Bros. Animation",
        "origin_country": "US"
      },
      {
        "id": 9993,
        "logo_path": "/2Tc1P3Ac8M479naPp1kYT3izLS5.png",
        "name": "DC Entertainment",
        "origin_country": "US"
      },
      {
        "id": 4859,
        "logo_path": "/wOF6aAYFE5BQryYyaMdQPqUWYwt.png",
        "name": "Nickelodeon Animation Studio",
        "origin_country": "US"
      },
      {
        "id": 429,
        "logo_path": "/2Tc1P3Ac8M479naPp1kYT3izLS5.png",
        "name": "DC Comics",
        "origin_country": "US"
      }
    ],
    "production_countries": [
      {
        "iso_3166_1": "US",
        "name": "United States of America"
      }
    ],
    "release_date": "2019-03-31",
    "revenue": 0,
    "runtime": 84,
    "spoken_languages": [
      {
        "iso_639_1": "en",
        "name": "English"
      }
    ],
    "status": "Released",
    "tagline": "",
    "title": "Batman vs. Teenage Mutant Ninja Turtles",
    "video": false,
    "vote_average": 7.1,
    "vote_count": 245
  },
  "headers": {
    "content-type": "application/json;charset=utf-8",
    "transfer-encoding": "chunked",
    "connection": "close",
    "date": "Mon, 26 Oct 2020 16:30:06 GMT",
    "server": "openresty",
    "access-control-allow-origin": "*",
    "access-control-allow-methods": "GET, HEAD, POST, PUT, DELETE, OPTIONS",
    "access-control-expose-headers": "ETag, X-RateLimit-Limit, X-RateLimit-Remaining, X-RateLimit-Reset, Retry-After, Content-Length, Content-Range",
    "cache-control": "public, max-age=21600",
    "x-memc": "HIT",
    "x-memc-key": "cfc2953ec24d12928bd378275a8bcd24",
    "x-memc-age": "11767",
    "x-memc-expires": "9833",
    "etag": "W/\"d0485541c466a4cf3419afc14f465178\"",
    "last-modified": "Mon, 26 Oct 2020 16:30:06 GMT",
    "content-encoding": "br",
    "vary": "Accept-Encoding",
    "x-cache": "Miss from cloudfront",
    "via": "1.1 a0a81637cc76d6981e4e29044a73b7f6.cloudfront.net (CloudFront)",
    "x-amz-cf-pop": "FRA6-C1",
    "x-amz-cf-id": "bQsJ0HJV7w4jX-CgM0ENYJpz46FXECgEcF9fJeciQNrhTM1MY3Enrg=="
  }
}