{
  "data": {
    "adult": false,
    "backdrop_path": "/myc2N1GjIKLTjSbIzmI0KEXdaPB.jpg",
    "belongs_to_collection": null,
    "budget": 12000000,
    "genres": [
      {
        "id": 16,
        "name": "Animation"
      },
      {
        "id": 35,
        "name": "Comedy"
      }
    ],
    "homepage": "",
    "id": 3179,
    "imdb_id": "tt0115641",
    "original_language": "en",
    "original_title": "Beavis and Butt-Head Do America",
    "overview": "Mike Judge's slacker duo, Beavis and Butt-Head, wake to discover their TV has been stolen. Their search for a new one takes them on a clueless adventure across America where they manage to accidentally become America's most wanted.",
    "popularity": 11.076,
    "poster_path": "/wEB1GPT7mQcTNuYT73s72ljjbMF.jpg",
    "production_companies": [
      {
        "id": 4,
        "logo_path": "/fycMZt242LVjagMByZOLUGbCvv3.png",
        "name": "Paramount",
        "origin_country": "US"
      },
      {
        "id": 360,
        "logo_path": null,
        "name": "Geffen Pictures",
        "origin_country": ""
      },
      {
        "id": 746,
        "logo_path": "/kc7bdIVTBkJYy9aDK1QDDTAL463.png",
        "name": "MTV Films",
        "origin_country": "US"
      }
    ],
    "production_countries": [
      {
        "iso_3166_1": "US",
        "name": "United States of America"
      }
    ],
    "release_date": "1996-12-15",
    "revenue": 0,
    "runtime": 81,
    "spoken_languages": [
      {
        "iso_639_1": "en",
        "name": "English"
      }
    ],
    "status": "Released",
    "tagline": "Coming to a screen bigger than your TV.",
    "title": "Beavis and Butt-Head Do America",
    "video": false,
    "vote_average": 6.5,
    "vote_count": 380
  },
  "headers": {
    "content-type": "application/json;charset=utf-8",
    "transfer-encoding": "chunked",
    "connection": "close",
    "date": "Tue, 20 Oct 2020 14:21:31 GMT",
    "server": "openresty",
    "access-control-allow-origin": "*",
    "access-control-allow-methods": "GET, HEAD, POST, PUT, DELETE, OPTIONS",
    "access-control-expose-headers": "ETag, X-RateLimit-Limit, X-RateLimit-Remaining, X-RateLimit-Reset, Retry-After, Content-Length, Content-Range",
    "cache-control": "public, max-age=21600",
    "x-memc": "MISS, STORE",
    "x-memc-key": "23fc9ec97959027873103a3581221af2",
    "x-memc-age": "0",
    "x-memc-expires": "21600",
    "last-modified": "2020-07-27 19:19:01 +0000",
    "content-encoding": "br",
    "vary": "Accept-Encoding",
    "x-cache": "Miss from cloudfront",
    "via": "1.1 a3dc4a768d48247641f8ad7f08326d38.cloudfront.net (CloudFront)",
    "x-amz-cf-pop": "TXL52-C1",
    "x-amz-cf-id": "tvAN38tq-H89I_jgc_Ix5sR2X024zyhvAaXKyVC0Qt0mhl9cwK2wAQ=="
  }
}