{
  "data": {
    "adult": false,
    "backdrop_path": "/6ELJEzQJ3Y45HczvreC3dg0GV5R.jpg",
    "belongs_to_collection": null,
    "budget": 200000000,
    "genres": [
      {
        "id": 28,
        "name": "Action"
      },
      {
        "id": 12,
        "name": "Adventure"
      },
      {
        "id": 14,
        "name": "Fantasy"
      },
      {
        "id": 878,
        "name": "Science Fiction"
      }
    ],
    "homepage": "https://marvel.com/movies/movie/224/black_panther",
    "id": 284054,
    "imdb_id": "tt1825683",
    "original_language": "en",
    "original_title": "Black Panther",
    "overview": "King T'Challa returns home from America to the reclusive, technologically advanced African nation of Wakanda to serve as his country's new leader. However, T'Challa soon finds that he is challenged for the throne by factions within his own country as well as without. Using powers reserved to Wakandan kings, T'Challa assumes the Black Panther mantel to join with girlfriend Nakia, the queen-mother, his princess-kid sister, members of the Dora Milaje (the Wakandan 'special forces') and an American secret agent, to prevent Wakanda from being dragged into a world war.",
    "popularity": 117.696,
    "poster_path": "/uxzzxijgPIY7slzFvMotPv8wjKA.jpg",
    "production_companies": [
      {
        "id": 420,
        "logo_path": "/hUzeosd33nzE5MCNsZxCGEKTXaQ.png",
        "name": "Marvel Studios",
        "origin_country": "US"
      },
      {
        "id": 2,
        "logo_path": "/wdrCwmRnLFJhEoH8GSfymY85KHT.png",
        "name": "Walt Disney Pictures",
        "origin_country": "US"
      }
    ],
    "production_countries": [
      {
        "iso_3166_1": "US",
        "name": "United States of America"
      }
    ],
    "release_date": "2018-02-13",
    "revenue": 1346739107,
    "runtime": 134,
    "spoken_languages": [
      {
        "iso_639_1": "en",
        "name": "English"
      },
      {
        "iso_639_1": "ko",
        "name": "한국어/조선말"
      },
      {
        "iso_639_1": "sw",
        "name": "Kiswahili"
      },
      {
        "iso_639_1": "xh",
        "name": ""
      }
    ],
    "status": "Released",
    "tagline": "Long live the king.",
    "title": "Black Panther",
    "video": false,
    "vote_average": 7.4,
    "vote_count": 16183
  },
  "headers": {
    "content-type": "application/json;charset=utf-8",
    "transfer-encoding": "chunked",
    "connection": "close",
    "date": "Mon, 26 Oct 2020 16:31:04 GMT",
    "server": "openresty",
    "access-control-allow-origin": "*",
    "access-control-allow-methods": "GET, HEAD, POST, PUT, DELETE, OPTIONS",
    "access-control-expose-headers": "ETag, X-RateLimit-Limit, X-RateLimit-Remaining, X-RateLimit-Reset, Retry-After, Content-Length, Content-Range",
    "cache-control": "public, max-age=21600",
    "x-memc": "HIT",
    "x-memc-key": "22861bbea4b48d9b9dceeea4cdd92e3f",
    "x-memc-age": "17482",
    "x-memc-expires": "4118",
    "etag": "W/\"a540387d58655a33bf7feec4eb28bc87\"",
    "last-modified": "Mon, 26 Oct 2020 16:31:04 GMT",
    "content-encoding": "br",
    "vary": "Accept-Encoding",
    "x-cache": "Miss from cloudfront",
    "via": "1.1 2f0580a0593ad9d3fb82aee9226d8179.cloudfront.net (CloudFront)",
    "x-amz-cf-pop": "FRA6-C1",
    "x-amz-cf-id": "azzcKYzAdDt5vNI8RgyoD4gUoFFW5IPobkerCAkfzLlweVzKBtdULQ=="
  }
}