{
  "data": {
    "adult": false,
    "backdrop_path": "/4FLZTeVWrp14vm5wMlSJzEghDrd.jpg",
    "belongs_to_collection": null,
    "budget": 3500000,
    "genres": [
      {
        "id": 18,
        "name": "Drama"
      },
      {
        "id": 10749,
        "name": "Romance"
      }
    ],
    "homepage": "",
    "id": 46705,
    "imdb_id": "tt1120985",
    "original_language": "en",
    "original_title": "Blue Valentine",
    "overview": "Dean and Cindy live a quiet life in a modest neighborhood. They appear to have the world at their feet at the outset of the relationship. However, his lack of ambition and her retreat into self-absorption cause potentially irreversible cracks in their marriage.",
    "popularity": 13.18,
    "poster_path": "/dc8BdKnDY5Iy28KzUGtHIXuqqFK.jpg",
    "production_companies": [
      {
        "id": 11338,
        "logo_path": null,
        "name": "Cottage Industries",
        "origin_country": ""
      },
      {
        "id": 7215,
        "logo_path": null,
        "name": "Incentive Filmed Entertainment",
        "origin_country": ""
      },
      {
        "id": 2293,
        "logo_path": null,
        "name": "Silverwood Films",
        "origin_country": ""
      },
      {
        "id": 2290,
        "logo_path": null,
        "name": "Hunting Lane Films",
        "origin_country": ""
      },
      {
        "id": 11335,
        "logo_path": null,
        "name": "Chrysler Corporation",
        "origin_country": ""
      },
      {
        "id": 11336,
        "logo_path": null,
        "name": "Shade Pictures",
        "origin_country": ""
      },
      {
        "id": 11337,
        "logo_path": null,
        "name": "Motel Movies",
        "origin_country": ""
      }
    ],
    "production_countries": [
      {
        "iso_3166_1": "US",
        "name": "United States of America"
      }
    ],
    "release_date": "2010-12-16",
    "revenue": 16566240,
    "runtime": 112,
    "spoken_languages": [
      {
        "iso_639_1": "en",
        "name": "English"
      }
    ],
    "status": "Released",
    "tagline": "Nobody Baby But You And Me",
    "title": "Blue Valentine",
    "video": false,
    "vote_average": 6.9,
    "vote_count": 2141
  },
  "headers": {
    "content-type": "application/json;charset=utf-8",
    "transfer-encoding": "chunked",
    "connection": "close",
    "date": "Tue, 20 Oct 2020 14:24:08 GMT",
    "server": "openresty",
    "access-control-allow-origin": "*",
    "access-control-allow-methods": "GET, HEAD, POST, PUT, DELETE, OPTIONS",
    "access-control-expose-headers": "ETag, X-RateLimit-Limit, X-RateLimit-Remaining, X-RateLimit-Reset, Retry-After, Content-Length, Content-Range",
    "cache-control": "public, max-age=21600",
    "x-memc": "HIT",
    "x-memc-key": "6426715c3218462330c5909da13f9c6b",
    "x-memc-age": "13009",
    "x-memc-expires": "8591",
    "etag": "W/\"7c7c17cb60820e19aff5d2fef5795bf0\"",
    "last-modified": "Tue, 20 Oct 2020 14:24:08 GMT",
    "content-encoding": "br",
    "vary": "Accept-Encoding",
    "x-cache": "Miss from cloudfront",
    "via": "1.1 d5d4d284c2005ab214a2c9b6195c55c5.cloudfront.net (CloudFront)",
    "x-amz-cf-pop": "TXL52-C1",
    "x-amz-cf-id": "hrQ04XC6KC7pFzHq1Xztopt_kxeeb2XNVvl7RQlslfrFH9qimqLZWg=="
  }
}