{
  "data": {
    "adult": false,
    "backdrop_path": "/A96CVXbTNfhqw3jkUlyfFnGe8i3.jpg",
    "belongs_to_collection": null,
    "budget": 7000000,
    "genres": [
      {
        "id": 80,
        "name": "Crime"
      },
      {
        "id": 18,
        "name": "Drama"
      },
      {
        "id": 53,
        "name": "Thriller"
      }
    ],
    "homepage": "",
    "id": 14181,
    "imdb_id": "tt0181984",
    "original_language": "en",
    "original_title": "Boiler Room",
    "overview": "A college dropout gets a job as a broker for a suburban investment firm and is on the fast track to success—but the job might not be as legitimate as it sounds.",
    "popularity": 11.918,
    "poster_path": "/uYbkko9u3RUbrFO7oDCScxdOlvQ.jpg",
    "production_companies": [
      {
        "id": 12,
        "logo_path": "/iaYpEp3LQmb8AfAtmTvpqd4149c.png",
        "name": "New Line Cinema",
        "origin_country": "US"
      }
    ],
    "production_countries": [
      {
        "iso_3166_1": "US",
        "name": "United States of America"
      }
    ],
    "release_date": "2000-02-18",
    "revenue": 28780255,
    "runtime": 118,
    "spoken_languages": [
      {
        "iso_639_1": "en",
        "name": "English"
      },
      {
        "iso_639_1": "ru",
        "name": "Pусский"
      }
    ],
    "status": "Released",
    "tagline": "Welcome to the new American dream.",
    "title": "Boiler Room",
    "video": false,
    "vote_average": 6.7,
    "vote_count": 405
  },
  "headers": {
    "content-type": "application/json;charset=utf-8",
    "transfer-encoding": "chunked",
    "connection": "close",
    "date": "Mon, 26 Oct 2020 16:31:46 GMT",
    "server": "openresty",
    "access-control-allow-origin": "*",
    "access-control-allow-methods": "GET, HEAD, POST, PUT, DELETE, OPTIONS",
    "access-control-expose-headers": "ETag, X-RateLimit-Limit, X-RateLimit-Remaining, X-RateLimit-Reset, Retry-After, Content-Length, Content-Range",
    "cache-control": "public, max-age=21600",
    "x-memc": "HIT",
    "x-memc-key": "15f281bc333bb10f934f32a2b196b14c",
    "x-memc-age": "2969",
    "x-memc-expires": "18631",
    "etag": "W/\"ad60af7ed76fdcee4029e7702c787a92\"",
    "last-modified": "Mon, 26 Oct 2020 16:31:46 GMT",
    "content-encoding": "br",
    "vary": "Accept-Encoding",
    "x-cache": "Miss from cloudfront",
    "via": "1.1 6e432daa93321d42e8840614082fcdc3.cloudfront.net (CloudFront)",
    "x-amz-cf-pop": "FRA6-C1",
    "x-amz-cf-id": "ACvWZRmd0jsD3vhs4iNZRomjlC8X57CW69n8fRiM_US2kmqPj6F33A=="
  }
}