{
  "data": {
    "adult": false,
    "backdrop_path": "/zfb4SvGjvrdRGmbhaZrrOsxOfez.jpg",
    "belongs_to_collection": null,
    "budget": 0,
    "genres": [
      {
        "id": 28,
        "name": "Action"
      },
      {
        "id": 16,
        "name": "Animation"
      },
      {
        "id": 14,
        "name": "Fantasy"
      },
      {
        "id": 878,
        "name": "Science Fiction"
      }
    ],
    "homepage": "",
    "id": 14830,
    "imdb_id": "tt0910865",
    "original_language": "en",
    "original_title": "Doctor Strange",
    "overview": "Dr. Stephen Strange embarks on a wondrous journey to the heights of a Tibetan mountain, where he seeks healing at the feet of the mysterious Ancient One.",
    "popularity": 15.904,
    "poster_path": "/kP5ihakYGSTZ7FQDXBSbqla9men.jpg",
    "production_companies": [
      {
        "id": 13252,
        "logo_path": "/aGeUvfSNA8gRl6ZjvmLQOsb7PMw.png",
        "name": "Marvel Animation",
        "origin_country": "US"
      },
      {
        "id": 102419,
        "logo_path": null,
        "name": "MLG Productions 4",
        "origin_country": ""
      }
    ],
    "production_countries": [
      {
        "iso_3166_1": "US",
        "name": "United States of America"
      }
    ],
    "release_date": "2007-08-14",
    "revenue": 0,
    "runtime": 76,
    "spoken_languages": [
      {
        "iso_639_1": "en",
        "name": "English"
      }
    ],
    "status": "Released",
    "tagline": "Doctor Strange: The Sorcerer Supreme",
    "title": "Doctor Strange",
    "video": false,
    "vote_average": 6.8,
    "vote_count": 206
  },
  "headers": {
    "content-type": "application/json;charset=utf-8",
    "transfer-encoding": "chunked",
    "connection": "close",
    "date": "Tue, 20 Oct 2020 14:18:19 GMT",
    "server": "openresty",
    "access-control-allow-origin": "*",
    "access-control-allow-methods": "GET, HEAD, POST, PUT, DELETE, OPTIONS",
    "access-control-expose-headers": "ETag, X-RateLimit-Limit, X-RateLimit-Remaining, X-RateLimit-Reset, Retry-After, Content-Length, Content-Range",
    "cache-control": "public, max-age=21600",
    "x-memc": "HIT",
    "x-memc-key": "0ce98c8c4bc7afd43a596339a550d8e5",
    "x-memc-age": "5249",
    "x-memc-expires": "16351",
    "etag": "W/\"08b18a5644f5c89c080becdf16d8b481\"",
    "last-modified": "Tue, 20 Oct 2020 14:18:19 GMT",
    "content-encoding": "br",
    "vary": "Accept-Encoding",
    "x-cache": "Miss from cloudfront",
    "via": "1.1 d91c21a06968968452d701ff77f35a70.cloudfront.net (CloudFront)",
    "x-amz-cf-pop": "TXL52-C1",
    "x-amz-cf-id": "FFaDmzPhH_aO0eJbDKAXBW8I8DEbITaNRrN2RbAFMckqDncLeDGlyQ=="
  }
}