{
  "data": {
    "adult": false,
    "backdrop_path": "/jWNFpL7NLlDRcOJXGRwJkWbeexo.jpg",
    "belongs_to_collection": null,
    "budget": 137000000,
    "genres": [
      {
        "id": 12,
        "name": "Adventure"
      },
      {
        "id": 28,
        "name": "Action"
      },
      {
        "id": 16,
        "name": "Animation"
      },
      {
        "id": 14,
        "name": "Fantasy"
      },
      {
        "id": 878,
        "name": "Science Fiction"
      },
      {
        "id": 53,
        "name": "Thriller"
      },
      {
        "id": 10749,
        "name": "Romance"
      }
    ],
    "homepage": "",
    "id": 2114,
    "imdb_id": "tt0173840",
    "original_language": "en",
    "original_title": "Final Fantasy: The Spirits Within",
    "overview": "Led by a strange dream, scientist Aki Ross struggles to collect the eight spirits in the hope of creating a force powerful enough to protect the planet. With the aid of the Deep Eyes Squadron and her mentor, Dr. Sid, Aki must save the Earth from its darkest hate and unleash the spirits within.",
    "popularity": 17.377,
    "poster_path": "/cJlEv3xULhBt6WvjYEntBg3ReEw.jpg",
    "production_companies": [
      {
        "id": 20033,
        "logo_path": null,
        "name": "Chris Lee Productions",
        "origin_country": ""
      },
      {
        "id": 96629,
        "logo_path": null,
        "name": "Square Pictures",
        "origin_country": ""
      },
      {
        "id": 4164,
        "logo_path": null,
        "name": "Square USA",
        "origin_country": ""
      }
    ],
    "production_countries": [
      {
        "iso_3166_1": "JP",
        "name": "Japan"
      },
      {
        "iso_3166_1": "US",
        "name": "United States of America"
      }
    ],
    "release_date": "2001-07-02",
    "revenue": 85131830,
    "runtime": 106,
    "spoken_languages": [
      {
        "iso_639_1": "en",
        "name": "English"
      }
    ],
    "status": "Released",
    "tagline": "Unleash a new reality",
    "title": "Final Fantasy: The Spirits Within",
    "video": false,
    "vote_average": 6.1,
    "vote_count": 975
  },
  "headers": {
    "content-type": "application/json;charset=utf-8",
    "transfer-encoding": "chunked",
    "connection": "close",
    "date": "Mon, 26 Oct 2020 16:39:38 GMT",
    "server": "openresty",
    "access-control-allow-origin": "*",
    "access-control-allow-methods": "GET, HEAD, POST, PUT, DELETE, OPTIONS",
    "access-control-expose-headers": "ETag, X-RateLimit-Limit, X-RateLimit-Remaining, X-RateLimit-Reset, Retry-After, Content-Length, Content-Range",
    "cache-control": "public, max-age=21600",
    "x-memc": "MISS, STORE",
    "x-memc-key": "c1f52875b70fdb8468f6f8ab50cbf2e7",
    "x-memc-age": "0",
    "x-memc-expires": "21600",
    "last-modified": "2020-08-20 12:53:52 +0000",
    "content-encoding": "br",
    "vary": "Accept-Encoding",
    "x-cache": "Miss from cloudfront",
    "via": "1.1 78059242182c195ff7f26013772da09a.cloudfront.net (CloudFront)",
    "x-amz-cf-pop": "FRA6-C1",
    "x-amz-cf-id": "f0XWqNGrMpyBFF8Tjcd10g1GFjRa49G5hbXDS28bbmlnWyH_aCf4fg=="
  }
}