{
  "data": {
    "adult": false,
    "backdrop_path": "/m1LUdsYnFThcrbvRzlpbsFioEQT.jpg",
    "belongs_to_collection": {
      "id": 23026,
      "name": "Ghost in the Shell (Animated) Collection",
      "poster_path": "/xEQVBrAd1hWtwCeK39RQ84CRqB7.jpg",
      "backdrop_path": "/xt0E8CHXzLxEoiPqrjZMRrM4Izi.jpg"
    },
    "budget": 0,
    "genres": [
      {
        "id": 28,
        "name": "Action"
      },
      {
        "id": 16,
        "name": "Animation"
      },
      {
        "id": 878,
        "name": "Science Fiction"
      }
    ],
    "homepage": "",
    "id": 9323,
    "imdb_id": "tt0113568",
    "original_language": "ja",
    "original_title": "GHOST IN THE SHELL",
    "overview": "In the year 2029, the barriers of our world have been broken down by the net and by cybernetics, but this brings new vulnerability to humans in the form of brain-hacking. When a highly-wanted hacker known as 'The Puppetmaster' begins involving them in politics, Section 9, a group of cybernetically enhanced cops, are called in to investigate and stop the Puppetmaster.",
    "popularity": 30.438,
    "poster_path": "/9gC88zYUBARRSThcG93MvW14sqx.jpg",
    "production_companies": [
      {
        "id": 528,
        "logo_path": "/fO3Aof3lXQclYpBByYC8aneTXwA.png",
        "name": "Bandai Visual",
        "origin_country": "JP"
      },
      {
        "id": 529,
        "logo_path": "/rwB6w2aPENQbx756pBWSw44Ouk.png",
        "name": "Production I.G",
        "origin_country": "JP"
      },
      {
        "id": 59118,
        "logo_path": "/3KwKCviJ67dCm7m740cdaLt1VS8.png",
        "name": "Kodansha",
        "origin_country": "JP"
      },
      {
        "id": 102224,
        "logo_path": null,
        "name": "Manga Entertainment",
        "origin_country": ""
      },
      {
        "id": 192,
        "logo_path": "/93eAKlnQecDdMtucfOprzcjMw9V.png",
        "name": "Shochiku Co., Ltd.",
        "origin_country": "JP"
      }
    ],
    "production_countries": [
      {
        "iso_3166_1": "JP",
        "name": "Japan"
      }
    ],
    "release_date": "1995-11-18",
    "revenue": 2287714,
    "runtime": 83,
    "spoken_languages": [
      {
        "iso_639_1": "ja",
        "name": "日本語"
      }
    ],
    "status": "Released",
    "tagline": "It found a voice... Now it needs a body.",
    "title": "Ghost in the Shell",
    "video": false,
    "vote_average": 7.9,
    "vote_count": 1943
  },
  "headers": {
    "content-type": "application/json;charset=utf-8",
    "transfer-encoding": "chunked",
    "connection": "close",
    "date": "Tue, 20 Oct 2020 14:04:52 GMT",
    "server": "openresty",
    "access-control-allow-origin": "*",
    "access-control-allow-methods": "GET, HEAD, POST, PUT, DELETE, OPTIONS",
    "access-control-expose-headers": "ETag, X-RateLimit-Limit, X-RateLimit-Remaining, X-RateLimit-Reset, Retry-After, Content-Length, Content-Range",
    "cache-control": "public, max-age=21600",
    "x-memc": "HIT",
    "x-memc-key": "3406a38563cfdf3b8ae8f4ad80ac2790",
    "x-memc-age": "1090",
    "x-memc-expires": "20510",
    "etag": "W/\"d8f5b34d40a90926fbb553c995ac52a7\"",
    "last-modified": "Tue, 20 Oct 2020 14:04:52 GMT",
    "content-encoding": "br",
    "vary": "Accept-Encoding",
    "x-cache": "Miss from cloudfront",
    "via": "1.1 3987a119dd762046470f5ba503a917ea.cloudfront.net (CloudFront)",
    "x-amz-cf-pop": "TXL52-C1",
    "x-amz-cf-id": "lBNA8cJgUCOlWJIC_ag7pNgtG81x-SYC_gxl3Qv-dKQRxGwFkvZ68g=="
  }
}