{
  "data": {
    "adult": false,
    "backdrop_path": "/x9ezMgOtDPqHatHDvxEG0ILb6Ie.jpg",
    "belongs_to_collection": null,
    "budget": 61000000,
    "genres": [
      {
        "id": 9648,
        "name": "Mystery"
      },
      {
        "id": 53,
        "name": "Thriller"
      },
      {
        "id": 18,
        "name": "Drama"
      }
    ],
    "homepage": "http://www.gonegirlmovie.com/",
    "id": 210577,
    "imdb_id": "tt2267998",
    "original_language": "en",
    "original_title": "Gone Girl",
    "overview": "With his wife's disappearance having become the focus of an intense media circus, a man sees the spotlight turned on him when it's suspected that he may not be innocent.",
    "popularity": 31.721,
    "poster_path": "/qymaJhucquUwjpb8oiqynMeXnID.jpg",
    "production_companies": [
      {
        "id": 508,
        "logo_path": "/7PzJdsLGlR7oW4J0J5Xcd0pHGRg.png",
        "name": "Regency Enterprises",
        "origin_country": "US"
      },
      {
        "id": 10104,
        "logo_path": "/hNuGhsKVlmhnwSRcmOejDBDjh6w.png",
        "name": "New Regency Pictures",
        "origin_country": "US"
      },
      {
        "id": 15829,
        "logo_path": null,
        "name": "Pacific Standard",
        "origin_country": ""
      },
      {
        "id": 22213,
        "logo_path": "/qx9K6bFWJupwde0xQDwOvXkOaL8.png",
        "name": "TSG Entertainment",
        "origin_country": "US"
      },
      {
        "id": 60682,
        "logo_path": "/uyEGeoWO8xUtMIlEY8ztMZWizu6.png",
        "name": "Artemple - Hollywood",
        "origin_country": "US"
      },
      {
        "id": 25,
        "logo_path": "/qZCc1lty5FzX30aOCVRBLzaVmcp.png",
        "name": "20th Century Fox",
        "origin_country": "US"
      }
    ],
    "production_countries": [
      {
        "iso_3166_1": "US",
        "name": "United States of America"
      }
    ],
    "release_date": "2014-10-01",
    "revenue": 369330363,
    "runtime": 149,
    "spoken_languages": [
      {
        "iso_639_1": "en",
        "name": "English"
      }
    ],
    "status": "Released",
    "tagline": "You don't know what you've got 'til it's...",
    "title": "Gone Girl",
    "video": false,
    "vote_average": 7.9,
    "vote_count": 13230
  },
  "headers": {
    "content-type": "application/json;charset=utf-8",
    "transfer-encoding": "chunked",
    "connection": "close",
    "date": "Tue, 20 Oct 2020 14:05:08 GMT",
    "server": "openresty",
    "access-control-allow-origin": "*",
    "access-control-allow-methods": "GET, HEAD, POST, PUT, DELETE, OPTIONS",
    "access-control-expose-headers": "ETag, X-RateLimit-Limit, X-RateLimit-Remaining, X-RateLimit-Reset, Retry-After, Content-Length, Content-Range",
    "cache-control": "public, max-age=21600",
    "x-memc": "HIT",
    "x-memc-key": "b32ab1455d78820b1c850a3d2f06c0f3",
    "x-memc-age": "10760",
    "x-memc-expires": "10840",
    "etag": "W/\"cf519782c99dd56cecc47ab40f040e68\"",
    "last-modified": "Tue, 20 Oct 2020 14:05:08 GMT",
    "content-encoding": "br",
    "vary": "Accept-Encoding",
    "x-cache": "Miss from cloudfront",
    "via": "1.1 df792ea3bbbe656e2f5c7b61aa85cc47.cloudfront.net (CloudFront)",
    "x-amz-cf-pop": "TXL52-C1",
    "x-amz-cf-id": "45twNHaBWbc6hLcd3r95m6-zaBNoWXjo5CLY1tT5YU09CNkougHY3Q=="
  }
}