{
  "data": {
    "adult": false,
    "backdrop_path": "/7dzngS8pLkGJpyeskCFcjPO9qLF.jpg",
    "belongs_to_collection": {
      "id": 404609,
      "name": "John Wick Collection",
      "poster_path": "/pZ4hR5IIoHHfNjot9rq4F96OGAi.jpg",
      "backdrop_path": "/fSwYa5q2xRkBoOOjueLpkLf3N1m.jpg"
    },
    "budget": 20000000,
    "genres": [
      {
        "id": 28,
        "name": "Action"
      },
      {
        "id": 53,
        "name": "Thriller"
      }
    ],
    "homepage": "http://www.johnwickthemovie.com/",
    "id": 245891,
    "imdb_id": "tt2911666",
    "original_language": "en",
    "original_title": "John Wick",
    "overview": "Ex-hitman John Wick comes out of retirement to track down the gangsters that took everything from him.",
    "popularity": 57.098,
    "poster_path": "/h3VxEVUOoBZmo79O8RqKvyGiqmE.jpg",
    "production_companies": [
      {
        "id": 491,
        "logo_path": "/rUp0lLKa1pr4UsPm8fgzmnNGxtq.png",
        "name": "Summit Entertainment",
        "origin_country": "US"
      },
      {
        "id": 23008,
        "logo_path": "/5SarYupipdiejsEqUkwu1SpYfru.png",
        "name": "87Eleven",
        "origin_country": "US"
      },
      {
        "id": 36259,
        "logo_path": null,
        "name": "DefyNite Films",
        "origin_country": "US"
      },
      {
        "id": 36433,
        "logo_path": null,
        "name": "MJW Films",
        "origin_country": "US"
      },
      {
        "id": 174,
        "logo_path": "/IuAlhI9eVC9Z8UQWOIDdWRKSEJ.png",
        "name": "Warner Bros. Pictures",
        "origin_country": "US"
      }
    ],
    "production_countries": [
      {
        "iso_3166_1": "US",
        "name": "United States of America"
      }
    ],
    "release_date": "2014-10-22",
    "revenue": 88761661,
    "runtime": 101,
    "spoken_languages": [
      {
        "iso_639_1": "hu",
        "name": "Magyar"
      },
      {
        "iso_639_1": "en",
        "name": "English"
      },
      {
        "iso_639_1": "ru",
        "name": "Pусский"
      }
    ],
    "status": "Released",
    "tagline": "Don't set him off.",
    "title": "John Wick",
    "video": false,
    "vote_average": 7.3,
    "vote_count": 13356
  },
  "headers": {
    "content-type": "application/json;charset=utf-8",
    "transfer-encoding": "chunked",
    "connection": "close",
    "date": "Mon, 26 Oct 2020 16:36:56 GMT",
    "server": "openresty",
    "access-control-allow-origin": "*",
    "access-control-allow-methods": "GET, HEAD, POST, PUT, DELETE, OPTIONS",
    "access-control-expose-headers": "ETag, X-RateLimit-Limit, X-RateLimit-Remaining, X-RateLimit-Reset, Retry-After, Content-Length, Content-Range",
    "cache-control": "public, max-age=21600",
    "x-memc": "HIT",
    "x-memc-key": "a41926b80234f003ec9cac01fd7cd412",
    "x-memc-age": "1425",
    "x-memc-expires": "20175",
    "etag": "W/\"1e04bce5bebde3ceaf68c5964b8c5f82\"",
    "last-modified": "Mon, 26 Oct 2020 16:36:56 GMT",
    "content-encoding": "br",
    "vary": "Accept-Encoding",
    "x-cache": "Miss from cloudfront",
    "via": "1.1 7ed7afde326861e358c3c83359e99895.cloudfront.net (CloudFront)",
    "x-amz-cf-pop": "FRA6-C1",
    "x-amz-cf-id": "jOQ-usOt5NNDC1N1ju8_mJu0yB1xDBXCROt9nsNpG9DKSuTNi3PTcQ=="
  }
}