{
  "data": {
    "adult": false,
    "backdrop_path": "/flkebwiOTS1kplumxsjhJtE4FKr.jpg",
    "belongs_to_collection": null,
    "budget": 1000000,
    "genres": [
      {
        "id": 53,
        "name": "Thriller"
      },
      {
        "id": 80,
        "name": "Crime"
      }
    ],
    "homepage": "",
    "id": 9558,
    "imdb_id": "tt0099939",
    "original_language": "en",
    "original_title": "King of New York",
    "overview": "A former drug lord returns from prison determined to wipe out all his competition and distribute the profits of his operations to New York's poor and lower classes in this stylish and ultra violent modern twist on Robin Hood.",
    "popularity": 11.488,
    "poster_path": "/yxz2WCtYM3xmiztnpVDgG82yJ2h.jpg",
    "production_companies": [
      {
        "id": 14159,
        "logo_path": null,
        "name": "Seven Arts Pictures",
        "origin_country": ""
      },
      {
        "id": 364,
        "logo_path": null,
        "name": "The Rank Organisation",
        "origin_country": ""
      },
      {
        "id": 1242,
        "logo_path": "/qOvcm1WCLlAdNoQ1kCkk2J7bhWk.png",
        "name": "Reteitalia",
        "origin_country": "IT"
      },
      {
        "id": 275,
        "logo_path": "/2MxNWlN5b3UXt1OfmznsWEQzFwq.png",
        "name": "Carolco Pictures",
        "origin_country": "US"
      }
    ],
    "production_countries": [
      {
        "iso_3166_1": "IT",
        "name": "Italy"
      },
      {
        "iso_3166_1": "GB",
        "name": "United Kingdom"
      },
      {
        "iso_3166_1": "US",
        "name": "United States of America"
      }
    ],
    "release_date": "1990-07-18",
    "revenue": 2554476,
    "runtime": 103,
    "spoken_languages": [
      {
        "iso_639_1": "en",
        "name": "English"
      },
      {
        "iso_639_1": "es",
        "name": "Español"
      }
    ],
    "status": "Released",
    "tagline": "Not everyone who runs a city is elected.",
    "title": "King of New York",
    "video": false,
    "vote_average": 6.7,
    "vote_count": 300
  },
  "headers": {
    "content-type": "application/json;charset=utf-8",
    "transfer-encoding": "chunked",
    "connection": "close",
    "date": "Tue, 20 Oct 2020 14:13:16 GMT",
    "server": "openresty",
    "access-control-allow-origin": "*",
    "access-control-allow-methods": "GET, HEAD, POST, PUT, DELETE, OPTIONS",
    "access-control-expose-headers": "ETag, X-RateLimit-Limit, X-RateLimit-Remaining, X-RateLimit-Reset, Retry-After, Content-Length, Content-Range",
    "cache-control": "public, max-age=21600",
    "x-memc": "MISS, STORE",
    "x-memc-key": "bc0083c8f3899f6259c4a2b2a30a721e",
    "x-memc-age": "0",
    "x-memc-expires": "21600",
    "last-modified": "2020-10-15 11:56:22 +0000",
    "content-encoding": "br",
    "vary": "Accept-Encoding",
    "x-cache": "Miss from cloudfront",
    "via": "1.1 df2b5b3f847bbe9ad7f475c0831bcc3a.cloudfront.net (CloudFront)",
    "x-amz-cf-pop": "TXL52-C1",
    "x-amz-cf-id": "Ad71fGW3821Y8WtfKDzyfmvPAPuVVEXyNzAyYfcJroPe_jYfXp1lGg=="
  }
}