{
  "data": {
    "adult": false,
    "backdrop_path": "/9KC8SBwUU3DzsXE6QQF6gk1Jy2d.jpg",
    "belongs_to_collection": null,
    "budget": 15000000,
    "genres": [
      {
        "id": 35,
        "name": "Comedy"
      },
      {
        "id": 80,
        "name": "Crime"
      },
      {
        "id": 28,
        "name": "Action"
      }
    ],
    "homepage": "https://www.warnerbros.com/kiss-kiss-bang-bang",
    "id": 5236,
    "imdb_id": "tt0373469",
    "original_language": "en",
    "original_title": "Kiss Kiss Bang Bang",
    "overview": "A petty thief posing as an actor is brought to Los Angeles for an unlikely audition and finds himself in the middle of a murder investigation along with his high school dream girl and a detective who's been training him for his upcoming role...",
    "popularity": 12.424,
    "poster_path": "/5cPk7YIEP6Uj9tV0mKZSsI9MGbF.jpg",
    "production_companies": [
      {
        "id": 1885,
        "logo_path": "/xlvoOZr4s1PygosrwZyolIFe5xs.png",
        "name": "Silver Pictures",
        "origin_country": "US"
      },
      {
        "id": 174,
        "logo_path": "/IuAlhI9eVC9Z8UQWOIDdWRKSEJ.png",
        "name": "Warner Bros. Pictures",
        "origin_country": "US"
      }
    ],
    "production_countries": [
      {
        "iso_3166_1": "US",
        "name": "United States of America"
      }
    ],
    "release_date": "2005-09-05",
    "revenue": 15785148,
    "runtime": 103,
    "spoken_languages": [
      {
        "iso_639_1": "en",
        "name": "English"
      }
    ],
    "status": "Released",
    "tagline": "SeX. MurdEr. MyStery. Welcome to the party.",
    "title": "Kiss Kiss Bang Bang",
    "video": false,
    "vote_average": 7.2,
    "vote_count": 1764
  },
  "headers": {
    "content-type": "application/json;charset=utf-8",
    "transfer-encoding": "chunked",
    "connection": "close",
    "date": "Mon, 26 Oct 2020 16:26:58 GMT",
    "server": "openresty",
    "access-control-allow-origin": "*",
    "access-control-allow-methods": "GET, HEAD, POST, PUT, DELETE, OPTIONS",
    "access-control-expose-headers": "ETag, X-RateLimit-Limit, X-RateLimit-Remaining, X-RateLimit-Reset, Retry-After, Content-Length, Content-Range",
    "cache-control": "public, max-age=21600",
    "x-memc": "MISS, STORE",
    "x-memc-key": "38e9dcd8243124a6aa147d3367760b8c",
    "x-memc-age": "0",
    "x-memc-expires": "21600",
    "last-modified": "2020-10-04 23:52:14 +0000",
    "content-encoding": "br",
    "vary": "Accept-Encoding",
    "x-cache": "Miss from cloudfront",
    "via": "1.1 c275031486c6f7b744b8d30847e98b14.cloudfront.net (CloudFront)",
    "x-amz-cf-pop": "FRA6-C1",
    "x-amz-cf-id": "DcLhwNnb1pVMWMjvlO1lgRS2slNvmC--DhlyqkAEdXRqjNNBYPMcnQ=="
  }
}