{
  "data": {
    "adult": false,
    "backdrop_path": "/zjyRfcM47QzCrRUYwlIJJsqqUvF.jpg",
    "belongs_to_collection": null,
    "budget": 0,
    "genres": [
      {
        "id": 28,
        "name": "Action"
      },
      {
        "id": 35,
        "name": "Comedy"
      }
    ],
    "homepage": "",
    "id": 11891,
    "imdb_id": "tt0240468",
    "original_language": "en",
    "original_title": "Kung Pow: Enter the Fist",
    "overview": "A movie within a movie, created to spoof the martial arts genre. Writer/director Steve Oedekerk uses contemporary characters and splices them into a 1970s kung-fu film, weaving the new and old together.\r As the main character, The Chosen One, Oedekerk sets off to avenge the deaths of his parents at the hands of kung-fu legend Master Pain. Along the way he encounters some strange characters.",
    "popularity": 11.509,
    "poster_path": "/8twRIXhh7EoLZWcihWRKJEgdAXq.jpg",
    "production_companies": [
      {
        "id": 5682,
        "logo_path": null,
        "name": "O Entertainment",
        "origin_country": ""
      },
      {
        "id": 25,
        "logo_path": "/qZCc1lty5FzX30aOCVRBLzaVmcp.png",
        "name": "20th Century Fox",
        "origin_country": "US"
      }
    ],
    "production_countries": [
      {
        "iso_3166_1": "HK",
        "name": "Hong Kong"
      },
      {
        "iso_3166_1": "US",
        "name": "United States of America"
      }
    ],
    "release_date": "2002-01-25",
    "revenue": 0,
    "runtime": 81,
    "spoken_languages": [
      {
        "iso_639_1": "en",
        "name": "English"
      }
    ],
    "status": "Released",
    "tagline": "",
    "title": "Kung Pow: Enter the Fist",
    "video": false,
    "vote_average": 6.2,
    "vote_count": 364
  },
  "headers": {
    "content-type": "application/json;charset=utf-8",
    "transfer-encoding": "chunked",
    "connection": "close",
    "date": "Tue, 20 Oct 2020 14:22:54 GMT",
    "server": "openresty",
    "access-control-allow-origin": "*",
    "access-control-allow-methods": "GET, HEAD, POST, PUT, DELETE, OPTIONS",
    "access-control-expose-headers": "ETag, X-RateLimit-Limit, X-RateLimit-Remaining, X-RateLimit-Reset, Retry-After, Content-Length, Content-Range",
    "cache-control": "public, max-age=21600",
    "x-memc": "MISS, STORE",
    "x-memc-key": "f9005ffed07e555da56eeb4818d15217",
    "x-memc-age": "0",
    "x-memc-expires": "21600",
    "last-modified": "2020-09-30 21:49:30 +0000",
    "content-encoding": "br",
    "vary": "Accept-Encoding",
    "x-cache": "Miss from cloudfront",
    "via": "1.1 5e73c9f0818a1864e592f61fe6506072.cloudfront.net (CloudFront)",
    "x-amz-cf-pop": "TXL52-C1",
    "x-amz-cf-id": "Y-rOS6oTiKlVwdmKWvvET8MlGyl7WHWvYgwe43oaxkxY6gGo46doTA=="
  }
}