{
  "data": {
    "adult": false,
    "backdrop_path": "/sLhCoekLegcdRpANMGtwzVxbkLj.jpg",
    "belongs_to_collection": null,
    "budget": 4000000,
    "genres": [
      {
        "id": 27,
        "name": "Horror"
      },
      {
        "id": 18,
        "name": "Drama"
      }
    ],
    "homepage": "http://www.lettherightoneinmovie.com",
    "id": 13310,
    "imdb_id": "tt1139797",
    "original_language": "sv",
    "original_title": "Låt den rätte komma in",
    "overview": "Set in 1982 in the suburb of Blackeberg, Stockholm, twelve-year-old Oskar is a lonely outsider, bullied at school by his classmates; at home, Oskar dreams of revenge against a trio of bullies. He befriends his twelve-year-old, next-door neighbor Eli, who only appears at night in the snow-covered playground outside their building.",
    "popularity": 12.727,
    "poster_path": "/7IG4WjaAOVDlLvLUkh513HSwhW8.jpg",
    "production_companies": [
      {
        "id": 3576,
        "logo_path": null,
        "name": "EFTI",
        "origin_country": ""
      }
    ],
    "production_countries": [
      {
        "iso_3166_1": "SE",
        "name": "Sweden"
      }
    ],
    "release_date": "2008-01-26",
    "revenue": 10785801,
    "runtime": 115,
    "spoken_languages": [
      {
        "iso_639_1": "sv",
        "name": "svenska"
      }
    ],
    "status": "Released",
    "tagline": "Eli is 12 years old. She’s been 12 for over 200 years and she just moved in next door.",
    "title": "Let the Right One In",
    "video": false,
    "vote_average": 7.5,
    "vote_count": 1932
  },
  "headers": {
    "content-type": "application/json;charset=utf-8",
    "transfer-encoding": "chunked",
    "connection": "close",
    "date": "Tue, 20 Oct 2020 14:07:07 GMT",
    "server": "openresty",
    "access-control-allow-origin": "*",
    "access-control-allow-methods": "GET, HEAD, POST, PUT, DELETE, OPTIONS",
    "access-control-expose-headers": "ETag, X-RateLimit-Limit, X-RateLimit-Remaining, X-RateLimit-Reset, Retry-After, Content-Length, Content-Range",
    "cache-control": "public, max-age=21600",
    "x-memc": "HIT",
    "x-memc-key": "81e78e0b52ddb8e119a22a7c5bd8191a",
    "x-memc-age": "351",
    "x-memc-expires": "21249",
    "etag": "W/\"b77ed1726b4d0d2b8ba1c6fa8ce009ee\"",
    "last-modified": "Tue, 20 Oct 2020 14:07:07 GMT",
    "content-encoding": "br",
    "vary": "Accept-Encoding",
    "x-cache": "Miss from cloudfront",
    "via": "1.1 117b54f007fbf40fc2a4bbbd8e88fc21.cloudfront.net (CloudFront)",
    "x-amz-cf-pop": "TXL52-C1",
    "x-amz-cf-id": "INonZUTymkE3kqJ4LG-KSmo-WdBcfJcI1JqLwXD1fm-wnoJuhtwYEQ=="
  }
}