{
  "data": {
    "adult": false,
    "backdrop_path": "/w102m4HoCP5uxhW8Yh7Hv7QShix.jpg",
    "belongs_to_collection": {
      "id": 97461,
      "name": "Lilo & Stitch Collection",
      "poster_path": "/bstyyXaLinnYwoyvo5HaDceJN07.jpg",
      "backdrop_path": "/fmQpyiY2g2muOOLXQ0S0mTPij8I.jpg"
    },
    "budget": 80000000,
    "genres": [
      {
        "id": 16,
        "name": "Animation"
      },
      {
        "id": 10751,
        "name": "Family"
      }
    ],
    "homepage": "https://movies.disney.com/lilo-stitch",
    "id": 11544,
    "imdb_id": "tt0275847",
    "original_language": "en",
    "original_title": "Lilo & Stitch",
    "overview": "As Stitch, a runaway genetic experiment from a faraway planet, wreaks havoc on the Hawaiian Islands, he becomes the mischievous adopted alien \"puppy\" of an independent little girl named Lilo and learns about loyalty, friendship, and 'ohana, the Hawaiian tradition of family.",
    "popularity": 25.734,
    "poster_path": "/d73UqZWyw3MUMpeaFcENgLZ2kWS.jpg",
    "production_companies": [
      {
        "id": 2,
        "logo_path": "/wdrCwmRnLFJhEoH8GSfymY85KHT.png",
        "name": "Walt Disney Pictures",
        "origin_country": "US"
      },
      {
        "id": 6125,
        "logo_path": "/tVPmo07IHhBs4HuilrcV0yujsZ9.png",
        "name": "Walt Disney Animation Studios",
        "origin_country": "US"
      }
    ],
    "production_countries": [
      {
        "iso_3166_1": "US",
        "name": "United States of America"
      }
    ],
    "release_date": "2002-06-21",
    "revenue": 145771527,
    "runtime": 85,
    "spoken_languages": [
      {
        "iso_639_1": "en",
        "name": "English"
      }
    ],
    "status": "Released",
    "tagline": "There's one in every family.",
    "title": "Lilo & Stitch",
    "video": false,
    "vote_average": 7.5,
    "vote_count": 4128
  },
  "headers": {
    "content-type": "application/json;charset=utf-8",
    "transfer-encoding": "chunked",
    "connection": "close",
    "date": "Tue, 20 Oct 2020 14:08:41 GMT",
    "server": "openresty",
    "access-control-allow-origin": "*",
    "access-control-allow-methods": "GET, HEAD, POST, PUT, DELETE, OPTIONS",
    "access-control-expose-headers": "ETag, X-RateLimit-Limit, X-RateLimit-Remaining, X-RateLimit-Reset, Retry-After, Content-Length, Content-Range",
    "cache-control": "public, max-age=21600",
    "x-memc": "HIT",
    "x-memc-key": "e8ca43d337adf5fc49a449af1ca8f379",
    "x-memc-age": "8115",
    "x-memc-expires": "13485",
    "etag": "W/\"6bc42c606bb9a17726b3790b1befda04\"",
    "last-modified": "Tue, 20 Oct 2020 14:08:41 GMT",
    "content-encoding": "br",
    "vary": "Accept-Encoding",
    "x-cache": "Miss from cloudfront",
    "via": "1.1 41232b1248b5064ae14550b383a46695.cloudfront.net (CloudFront)",
    "x-amz-cf-pop": "TXL52-C1",
    "x-amz-cf-id": "Zw7ETyvGzdcKcLxdFKJGH4KGjmQIUHbwtURPP1y30ivsdG1Kd4Lhiw=="
  }
}