{
  "data": {
    "adult": false,
    "backdrop_path": "/fPJztZFjJsrPSc4Fhi58Oxrgaeb.jpg",
    "belongs_to_collection": null,
    "budget": 50000000,
    "genres": [
      {
        "id": 80,
        "name": "Crime"
      },
      {
        "id": 18,
        "name": "Drama"
      },
      {
        "id": 53,
        "name": "Thriller"
      }
    ],
    "homepage": "",
    "id": 1830,
    "imdb_id": "tt0399295",
    "original_language": "en",
    "original_title": "Lord of War",
    "overview": "Yuri Orlov is a globetrotting arms dealer and, through some of the deadliest war zones, he struggles to stay one step ahead of a relentless Interpol agent, his business rivals and even some of his customers who include many of the world’s most notorious dictators. Finally, he must also face his own conscience.",
    "popularity": 16.507,
    "poster_path": "/xEdwdFZRwrNAvTDx0fAV3MAInaA.jpg",
    "production_companies": [
      {
        "id": 1205,
        "logo_path": null,
        "name": "Endgame Entertainment",
        "origin_country": "US"
      },
      {
        "id": 1206,
        "logo_path": null,
        "name": "Entertainment Manufacturing Company",
        "origin_country": ""
      },
      {
        "id": 1204,
        "logo_path": null,
        "name": "Ascendant Pictures",
        "origin_country": ""
      },
      {
        "id": 831,
        "logo_path": null,
        "name": "Saturn Films",
        "origin_country": "US"
      },
      {
        "id": 1208,
        "logo_path": null,
        "name": "Rising Star",
        "origin_country": ""
      },
      {
        "id": 21938,
        "logo_path": null,
        "name": "Copag V",
        "origin_country": ""
      },
      {
        "id": 827,
        "logo_path": null,
        "name": "VIP 3 Medienfonds",
        "origin_country": ""
      },
      {
        "id": 137007,
        "logo_path": null,
        "name": "Majority Entertainment",
        "origin_country": ""
      },
      {
        "id": 21,
        "logo_path": "/mjofSXiHpG5t6KYmU4l4FrUhT7m.png",
        "name": "Metro-Goldwyn-Mayer",
        "origin_country": "US"
      }
    ],
    "production_countries": [
      {
        "iso_3166_1": "FR",
        "name": "France"
      },
      {
        "iso_3166_1": "US",
        "name": "United States of America"
      },
      {
        "iso_3166_1": "DE",
        "name": "Germany"
      }
    ],
    "release_date": "2005-09-16",
    "revenue": 72617068,
    "runtime": 122,
    "spoken_languages": [
      {
        "iso_639_1": "ar",
        "name": "العربية"
      },
      {
        "iso_639_1": "de",
        "name": "Deutsch"
      },
      {
        "iso_639_1": "en",
        "name": "English"
      },
      {
        "iso_639_1": "fr",
        "name": "Français"
      },
      {
        "iso_639_1": "ru",
        "name": "Pусский"
      },
      {
        "iso_639_1": "es",
        "name": "Español"
      },
      {
        "iso_639_1": "uk",
        "name": "Український"
      },
      {
        "iso_639_1": "tr",
        "name": "Türkçe"
      }
    ],
    "status": "Released",
    "tagline": "Where there’s a will, there’s a weapon",
    "title": "Lord of War",
    "video": false,
    "vote_average": 7.2,
    "vote_count": 2969
  },
  "headers": {
    "content-type": "application/json;charset=utf-8",
    "transfer-encoding": "chunked",
    "connection": "close",
    "date": "Tue, 20 Oct 2020 14:20:23 GMT",
    "server": "openresty",
    "access-control-allow-origin": "*",
    "access-control-allow-methods": "GET, HEAD, POST, PUT, DELETE, OPTIONS",
    "access-control-expose-headers": "ETag, X-RateLimit-Limit, X-RateLimit-Remaining, X-RateLimit-Reset, Retry-After, Content-Length, Content-Range",
    "cache-control": "public, max-age=21600",
    "x-memc": "HIT",
    "x-memc-key": "83835b43ab88ec680a4a0c76b4e0a5b5",
    "x-memc-age": "3020",
    "x-memc-expires": "18580",
    "etag": "W/\"09de3818999dc8c15fe32f01fd5a527c\"",
    "last-modified": "Tue, 20 Oct 2020 14:20:23 GMT",
    "content-encoding": "br",
    "vary": "Accept-Encoding",
    "x-cache": "Miss from cloudfront",
    "via": "1.1 03c38fb105b43128049da1df5835ab5e.cloudfront.net (CloudFront)",
    "x-amz-cf-pop": "TXL52-C1",
    "x-amz-cf-id": "Wx3wxnxVpRaJXvBVzPpDMP2M6nZ9Brz7vkXGhxcAnxpZ_LrQonNSFA=="
  }
}