{
  "data": {
    "adult": false,
    "backdrop_path": "/ld7V9BjMk2xtiBNcR8savyyk5ca.jpg",
    "belongs_to_collection": null,
    "budget": 110000000,
    "genres": [
      {
        "id": 18,
        "name": "Drama"
      },
      {
        "id": 14,
        "name": "Fantasy"
      },
      {
        "id": 12,
        "name": "Adventure"
      },
      {
        "id": 10751,
        "name": "Family"
      }
    ],
    "homepage": "http://www.foxmovies.com/movies/miss-peregrines-home-for-peculiar-children",
    "id": 283366,
    "imdb_id": "tt1935859",
    "original_language": "en",
    "original_title": "Miss Peregrine's Home for Peculiar Children",
    "overview": "A teenager finds himself transported to an island where he must help protect a group of orphans with special powers from creatures intent on destroying them.",
    "popularity": 67.065,
    "poster_path": "/tzYkC0vqX8Dokuwynhz1lnWWgWT.jpg",
    "production_companies": [
      {
        "id": 10893,
        "logo_path": null,
        "name": "Big Screen Productions",
        "origin_country": ""
      },
      {
        "id": 7076,
        "logo_path": "/8BFxn9NUWSgp0ndih569Gm62xiC.png",
        "name": "Chernin Entertainment",
        "origin_country": "US"
      },
      {
        "id": 8601,
        "logo_path": null,
        "name": "Tim Burton Productions",
        "origin_country": ""
      },
      {
        "id": 11199,
        "logo_path": "/ursSXLOZaDxiZ84sEgfXbiFnYaa.png",
        "name": "SCOPE Pictures",
        "origin_country": "BE"
      },
      {
        "id": 68621,
        "logo_path": null,
        "name": "St. Petersburg Clearwater Film Commission",
        "origin_country": ""
      },
      {
        "id": 22213,
        "logo_path": "/qx9K6bFWJupwde0xQDwOvXkOaL8.png",
        "name": "TSG Entertainment",
        "origin_country": "US"
      },
      {
        "id": 290,
        "logo_path": "/Q8mw2AOQQc8Qg0uNwLWq86DVZv.png",
        "name": "Ingenious Media",
        "origin_country": "GB"
      },
      {
        "id": 25,
        "logo_path": "/qZCc1lty5FzX30aOCVRBLzaVmcp.png",
        "name": "20th Century Fox",
        "origin_country": "US"
      }
    ],
    "production_countries": [
      {
        "iso_3166_1": "BE",
        "name": "Belgium"
      },
      {
        "iso_3166_1": "GB",
        "name": "United Kingdom"
      },
      {
        "iso_3166_1": "US",
        "name": "United States of America"
      }
    ],
    "release_date": "2016-09-28",
    "revenue": 296482446,
    "runtime": 127,
    "spoken_languages": [
      {
        "iso_639_1": "en",
        "name": "English"
      }
    ],
    "status": "Released",
    "tagline": "Stay peculiar",
    "title": "Miss Peregrine's Home for Peculiar Children",
    "video": false,
    "vote_average": 6.7,
    "vote_count": 7458
  },
  "headers": {
    "content-type": "application/json;charset=utf-8",
    "transfer-encoding": "chunked",
    "connection": "close",
    "date": "Mon, 26 Oct 2020 16:34:56 GMT",
    "server": "openresty",
    "access-control-allow-origin": "*",
    "access-control-allow-methods": "GET, HEAD, POST, PUT, DELETE, OPTIONS",
    "access-control-expose-headers": "ETag, X-RateLimit-Limit, X-RateLimit-Remaining, X-RateLimit-Reset, Retry-After, Content-Length, Content-Range",
    "cache-control": "public, max-age=21600",
    "x-memc": "MISS, STORE",
    "x-memc-key": "e81208de49cb1bdf8ed7438ca53c0e49",
    "x-memc-age": "0",
    "x-memc-expires": "21600",
    "last-modified": "2020-10-24 07:45:22 +0000",
    "content-encoding": "br",
    "vary": "Accept-Encoding",
    "x-cache": "Miss from cloudfront",
    "via": "1.1 a56d6b55603697d6c44b19d4f907baaa.cloudfront.net (CloudFront)",
    "x-amz-cf-pop": "FRA6-C1",
    "x-amz-cf-id": "cpy2kuv_3DlWGalJA8YzCm94ApDiyvNdDWFpo6tSSGd-afQFmofOyw=="
  }
}