{
  "data": {
    "adult": false,
    "backdrop_path": "/oWU6dgu3RgdSZElkhbZuoPtkWAJ.jpg",
    "belongs_to_collection": null,
    "budget": 150000000,
    "genres": [
      {
        "id": 12,
        "name": "Adventure"
      },
      {
        "id": 35,
        "name": "Comedy"
      },
      {
        "id": 10751,
        "name": "Family"
      },
      {
        "id": 16,
        "name": "Animation"
      }
    ],
    "homepage": "http://movies.disney.com/moana",
    "id": 277834,
    "imdb_id": "tt3521164",
    "original_language": "en",
    "original_title": "Moana",
    "overview": "In Ancient Polynesia, when a terrible curse incurred by Maui reaches an impetuous Chieftain's daughter's island, she answers the Ocean's call to seek out the demigod to set things right.",
    "popularity": 20.334,
    "poster_path": "/4JeejGugONWpJkbnvL12hVoYEDa.jpg",
    "production_companies": [
      {
        "id": 2,
        "logo_path": "/wdrCwmRnLFJhEoH8GSfymY85KHT.png",
        "name": "Walt Disney Pictures",
        "origin_country": "US"
      },
      {
        "id": 6125,
        "logo_path": "/tVPmo07IHhBs4HuilrcV0yujsZ9.png",
        "name": "Walt Disney Animation Studios",
        "origin_country": "US"
      }
    ],
    "production_countries": [
      {
        "iso_3166_1": "US",
        "name": "United States of America"
      }
    ],
    "release_date": "2016-11-23",
    "revenue": 690860472,
    "runtime": 107,
    "spoken_languages": [
      {
        "iso_639_1": "en",
        "name": "English"
      }
    ],
    "status": "Released",
    "tagline": "The ocean is calling.",
    "title": "Moana",
    "video": false,
    "vote_average": 7.6,
    "vote_count": 8767
  },
  "headers": {
    "content-type": "application/json;charset=utf-8",
    "transfer-encoding": "chunked",
    "connection": "close",
    "date": "Tue, 20 Oct 2020 14:03:50 GMT",
    "server": "openresty",
    "access-control-allow-origin": "*",
    "access-control-allow-methods": "GET, HEAD, POST, PUT, DELETE, OPTIONS",
    "access-control-expose-headers": "ETag, X-RateLimit-Limit, X-RateLimit-Remaining, X-RateLimit-Reset, Retry-After, Content-Length, Content-Range",
    "cache-control": "public, max-age=21600",
    "x-memc": "HIT",
    "x-memc-key": "7b17808e69b4f2c9c14d10e725414006",
    "x-memc-age": "20866",
    "x-memc-expires": "734",
    "etag": "W/\"95a65b5931fa2a77d48968f7c774f4f3\"",
    "last-modified": "Tue, 20 Oct 2020 14:03:50 GMT",
    "content-encoding": "br",
    "vary": "Accept-Encoding",
    "x-cache": "Miss from cloudfront",
    "via": "1.1 a3dc4a768d48247641f8ad7f08326d38.cloudfront.net (CloudFront)",
    "x-amz-cf-pop": "TXL52-C1",
    "x-amz-cf-id": "4q5Lp3iCiNAMJmtHIdFaXuwji_kPatXPjIPhMHuH_Kw079gA9MVUvQ=="
  }
}