{
  "data": {
    "adult": false,
    "backdrop_path": "/9qAqlxaeGsXwwpeSEVDt7LPHLwn.jpg",
    "belongs_to_collection": null,
    "budget": 26000000,
    "genres": [
      {
        "id": 12,
        "name": "Adventure"
      },
      {
        "id": 35,
        "name": "Comedy"
      },
      {
        "id": 80,
        "name": "Crime"
      }
    ],
    "homepage": "",
    "id": 134,
    "imdb_id": "tt0190590",
    "original_language": "en",
    "original_title": "O Brother, Where Art Thou?",
    "overview": "In the deep south during the 1930s, three escaped convicts search for hidden treasure while a relentless lawman pursues them. On their journey they come across many comical characters and incredible situations. Based upon Homer's 'Odyssey'.",
    "popularity": 14.393,
    "poster_path": "/2YztYilviFCYcEtDAnrOstUWGie.jpg",
    "production_companies": [
      {
        "id": 2092,
        "logo_path": null,
        "name": "Mike Zoss Productions",
        "origin_country": "US"
      },
      {
        "id": 33,
        "logo_path": "/8lvHyhjr8oUKOOy2dKXoALWKdp0.png",
        "name": "Universal Pictures",
        "origin_country": "US"
      },
      {
        "id": 9195,
        "logo_path": "/ou5BUbtulr6tIt699q6xJiEQTR9.png",
        "name": "Touchstone Pictures",
        "origin_country": "US"
      },
      {
        "id": 10163,
        "logo_path": "/16KWBMmfPX0aJzDExDrPxSLj0Pg.png",
        "name": "Working Title Films",
        "origin_country": "GB"
      },
      {
        "id": 694,
        "logo_path": "/5LEHONGkZBIoWvp1ygHOF8iyi1M.png",
        "name": "StudioCanal",
        "origin_country": "FR"
      }
    ],
    "production_countries": [
      {
        "iso_3166_1": "FR",
        "name": "France"
      },
      {
        "iso_3166_1": "GB",
        "name": "United Kingdom"
      },
      {
        "iso_3166_1": "US",
        "name": "United States of America"
      }
    ],
    "release_date": "2000-08-30",
    "revenue": 71868327,
    "runtime": 106,
    "spoken_languages": [
      {
        "iso_639_1": "en",
        "name": "English"
      }
    ],
    "status": "Released",
    "tagline": "They have a plan... but not a clue.",
    "title": "O Brother, Where Art Thou?",
    "video": false,
    "vote_average": 7.3,
    "vote_count": 2566
  },
  "headers": {
    "content-type": "application/json;charset=utf-8",
    "transfer-encoding": "chunked",
    "connection": "close",
    "date": "Tue, 20 Oct 2020 14:08:56 GMT",
    "server": "openresty",
    "access-control-allow-origin": "*",
    "access-control-allow-methods": "GET, HEAD, POST, PUT, DELETE, OPTIONS",
    "access-control-expose-headers": "ETag, X-RateLimit-Limit, X-RateLimit-Remaining, X-RateLimit-Reset, Retry-After, Content-Length, Content-Range",
    "cache-control": "public, max-age=21600",
    "x-memc": "HIT",
    "x-memc-key": "95954e9850f437b7d57eb5727c5a469f",
    "x-memc-age": "11949",
    "x-memc-expires": "9651",
    "etag": "W/\"af4e174adac1b35f6c07273f0d813a1e\"",
    "last-modified": "Tue, 20 Oct 2020 14:08:56 GMT",
    "content-encoding": "br",
    "vary": "Accept-Encoding",
    "x-cache": "Miss from cloudfront",
    "via": "1.1 f66aaf2d9f6a8e65595a1e24d5f18bcd.cloudfront.net (CloudFront)",
    "x-amz-cf-pop": "TXL52-C1",
    "x-amz-cf-id": "vX5x3mncCk-OZ1QXomp9b47U0WVFaxnuSv9x0xmDpN0xQSEpt1cXZg=="
  }
}