{
  "data": {
    "adult": false,
    "backdrop_path": "/9okAGjJtIFrcOIN3LapOCbuGl0O.jpg",
    "belongs_to_collection": null,
    "budget": 0,
    "genres": [
      {
        "id": 35,
        "name": "Comedy"
      }
    ],
    "homepage": "",
    "id": 20875,
    "imdb_id": "tt0059550",
    "original_language": "ru",
    "original_title": "Операция «Ы» и другие приключения Шурика",
    "overview": "The film consists of three independent parts: \"Workmate\", \"Déjà vu\" and \"Operation Y\". The plot follows the adventures of Shurik (alternative spelling — Shourick), the naive and nerdy Soviet student who often gets into ludicrous situations but always finds a way out very neatly.  \"Operation Y and Shurik's Other Adventures\" was a hit movie and became the leader of Soviet film distribution in 1965.",
    "popularity": 14.232,
    "poster_path": "/uO0elbwQM6SzRtfxNfSOOJbN1t7.jpg",
    "production_companies": [
      {
        "id": 344,
        "logo_path": "/xenuUvcunUNpbaDOYGhWZERaym7.png",
        "name": "Mosfilm",
        "origin_country": "RU"
      }
    ],
    "production_countries": [
      {
        "iso_3166_1": "RU",
        "name": "Russia"
      },
      {
        "iso_3166_1": "SU",
        "name": "Soviet Union"
      }
    ],
    "release_date": "1965-07-23",
    "revenue": 0,
    "runtime": 95,
    "spoken_languages": [
      {
        "iso_639_1": "uk",
        "name": "Український"
      },
      {
        "iso_639_1": "uz",
        "name": "ozbek"
      },
      {
        "iso_639_1": "ru",
        "name": "Pусский"
      }
    ],
    "status": "Released",
    "tagline": "",
    "title": "Operation Y and Other Shurik's Adventures",
    "video": false,
    "vote_average": 8,
    "vote_count": 132
  },
  "headers": {
    "content-type": "application/json;charset=utf-8",
    "transfer-encoding": "chunked",
    "connection": "close",
    "date": "Tue, 20 Oct 2020 14:04:21 GMT",
    "server": "openresty",
    "access-control-allow-origin": "*",
    "access-control-allow-methods": "GET, HEAD, POST, PUT, DELETE, OPTIONS",
    "access-control-expose-headers": "ETag, X-RateLimit-Limit, X-RateLimit-Remaining, X-RateLimit-Reset, Retry-After, Content-Length, Content-Range",
    "cache-control": "public, max-age=21600",
    "x-memc": "HIT",
    "x-memc-key": "b44becd5e6acceba516e4f986a131c7d",
    "x-memc-age": "1892",
    "x-memc-expires": "19708",
    "etag": "W/\"f6c04653e916eb32a2150ae2b8a8d4ec\"",
    "last-modified": "Tue, 20 Oct 2020 14:04:21 GMT",
    "content-encoding": "br",
    "vary": "Accept-Encoding",
    "x-cache": "Miss from cloudfront",
    "via": "1.1 a3dc4a768d48247641f8ad7f08326d38.cloudfront.net (CloudFront)",
    "x-amz-cf-pop": "TXL52-C1",
    "x-amz-cf-id": "1rBQaacdeX4CmNFFY48Id5SXVr5bfBxJUcjDrwkK4bIj6b2v66PhbQ=="
  }
}