{
  "data": {
    "adult": false,
    "backdrop_path": "/zmnSIyqMB9jG0QqTDJbJxUDgROt.jpg",
    "belongs_to_collection": null,
    "budget": 20500000,
    "genres": [
      {
        "id": 28,
        "name": "Action"
      },
      {
        "id": 80,
        "name": "Crime"
      }
    ],
    "homepage": "http://punisherwarzonemovie.com",
    "id": 13056,
    "imdb_id": "tt0450314",
    "original_language": "en",
    "original_title": "Punisher: War Zone",
    "overview": "Waging his one-man war on the world of organized crime, ruthless vigilante-hero Frank Castle sets his sights on overeager mob boss Billy Russoti. After Russoti is left horribly disfigured by Castle, he sets out for vengeance under his new alias: Jigsaw. With the \"Punisher Task Force\" hot on his trail and the FBI unable to take Jigsaw in, Frank must stand up to the formidable army that Jigsaw has recruited before more of his evil deeds go unpunished.",
    "popularity": 16.838,
    "poster_path": "/oOvKJgYUIpfswGHAdW6159bPbvM.jpg",
    "production_companies": [
      {
        "id": 1632,
        "logo_path": "/cisLn1YAUuptXVBa0xjq7ST9cH0.png",
        "name": "Lionsgate",
        "origin_country": "US"
      },
      {
        "id": 8848,
        "logo_path": null,
        "name": "MHF Zweite Academy Film",
        "origin_country": ""
      },
      {
        "id": 11106,
        "logo_path": "/h4XR8uTNylVX9hJTiN50e76booZ.png",
        "name": "Marvel Knights",
        "origin_country": "US"
      },
      {
        "id": 11533,
        "logo_path": "/tWM9pmzVYxok4GbQIttxdcml1yT.png",
        "name": "Valhalla Motion Pictures",
        "origin_country": "US"
      },
      {
        "id": 33808,
        "logo_path": null,
        "name": "SGF Entertainment",
        "origin_country": ""
      },
      {
        "id": 6438,
        "logo_path": "/hQVRii7CRnfG0rowSEc6ibt2Pke.png",
        "name": "Muse Entertainment",
        "origin_country": "CA"
      }
    ],
    "production_countries": [
      {
        "iso_3166_1": "CA",
        "name": "Canada"
      },
      {
        "iso_3166_1": "DE",
        "name": "Germany"
      },
      {
        "iso_3166_1": "US",
        "name": "United States of America"
      }
    ],
    "release_date": "2008-12-05",
    "revenue": 10089373,
    "runtime": 102,
    "spoken_languages": [
      {
        "iso_639_1": "ru",
        "name": "Pусский"
      },
      {
        "iso_639_1": "en",
        "name": "English"
      }
    ],
    "status": "Released",
    "tagline": "Vengeance has a name",
    "title": "Punisher: War Zone",
    "video": false,
    "vote_average": 5.7,
    "vote_count": 677
  },
  "headers": {
    "content-type": "application/json;charset=utf-8",
    "transfer-encoding": "chunked",
    "connection": "close",
    "date": "Mon, 26 Oct 2020 16:37:22 GMT",
    "server": "openresty",
    "access-control-allow-origin": "*",
    "access-control-allow-methods": "GET, HEAD, POST, PUT, DELETE, OPTIONS",
    "access-control-expose-headers": "ETag, X-RateLimit-Limit, X-RateLimit-Remaining, X-RateLimit-Reset, Retry-After, Content-Length, Content-Range",
    "cache-control": "public, max-age=21600",
    "x-memc": "HIT",
    "x-memc-key": "2aef8bb153f7af5de5f9e03f5586b485",
    "x-memc-age": "11669",
    "x-memc-expires": "9931",
    "etag": "W/\"8b79b5f9ad683a912144bd569f2f37f6\"",
    "last-modified": "Mon, 26 Oct 2020 16:37:22 GMT",
    "content-encoding": "br",
    "vary": "Accept-Encoding",
    "x-cache": "Miss from cloudfront",
    "via": "1.1 c1fb60e38be5022a78e4b52bedded7c2.cloudfront.net (CloudFront)",
    "x-amz-cf-pop": "FRA6-C1",
    "x-amz-cf-id": "PPjNqY1bNG_PL2IY96rEwfXUo11LkpfcMrVgkCsoCzuioiodALoyQw=="
  }
}