{
  "data": {
    "adult": false,
    "backdrop_path": "/kCiMExsYuNhYluHxPP2OTmWw7hp.jpg",
    "belongs_to_collection": {
      "id": 84,
      "name": "Indiana Jones Collection",
      "poster_path": "/2QHOQMZgn68maJqLroqEBbDcdtk.jpg",
      "backdrop_path": "/6kh59mZizZsttZPR0HAdXk6Ve2n.jpg"
    },
    "budget": 18000000,
    "genres": [
      {
        "id": 12,
        "name": "Adventure"
      },
      {
        "id": 28,
        "name": "Action"
      }
    ],
    "homepage": "http://www.indianajones.com",
    "id": 85,
    "imdb_id": "tt0082971",
    "original_language": "en",
    "original_title": "Raiders of the Lost Ark",
    "overview": "When Dr. Indiana Jones – the tweed-suited professor who just happens to be a celebrated archaeologist – is hired by the government to locate the legendary Ark of the Covenant, he finds himself up against the entire Nazi regime.",
    "popularity": 29.056,
    "poster_path": "/o4swLnuKP7Fw88xyhZgwkg5xySw.jpg",
    "production_companies": [
      {
        "id": 4,
        "logo_path": "/fycMZt242LVjagMByZOLUGbCvv3.png",
        "name": "Paramount",
        "origin_country": "US"
      },
      {
        "id": 1,
        "logo_path": "/o86DbpburjxrqAzEDhXZcyE8pDb.png",
        "name": "Lucasfilm Ltd.",
        "origin_country": "US"
      }
    ],
    "production_countries": [
      {
        "iso_3166_1": "US",
        "name": "United States of America"
      }
    ],
    "release_date": "1981-06-12",
    "revenue": 389925971,
    "runtime": 115,
    "spoken_languages": [
      {
        "iso_639_1": "en",
        "name": "English"
      },
      {
        "iso_639_1": "es",
        "name": "Español"
      },
      {
        "iso_639_1": "de",
        "name": "Deutsch"
      },
      {
        "iso_639_1": "he",
        "name": "עִבְרִית"
      },
      {
        "iso_639_1": "ar",
        "name": "العربية"
      },
      {
        "iso_639_1": "ne",
        "name": ""
      }
    ],
    "status": "Released",
    "tagline": "Indiana Jones - the new hero from the creators of JAWS and STAR WARS.",
    "title": "Raiders of the Lost Ark",
    "video": false,
    "vote_average": 7.9,
    "vote_count": 8414
  },
  "headers": {
    "content-type": "application/json;charset=utf-8",
    "transfer-encoding": "chunked",
    "connection": "close",
    "date": "Tue, 20 Oct 2020 14:13:57 GMT",
    "server": "openresty",
    "access-control-allow-origin": "*",
    "access-control-allow-methods": "GET, HEAD, POST, PUT, DELETE, OPTIONS",
    "access-control-expose-headers": "ETag, X-RateLimit-Limit, X-RateLimit-Remaining, X-RateLimit-Reset, Retry-After, Content-Length, Content-Range",
    "cache-control": "public, max-age=21600",
    "x-memc": "HIT",
    "x-memc-key": "6b8eb477bff638e9ee9b995ca5b67e11",
    "x-memc-age": "18214",
    "x-memc-expires": "3386",
    "etag": "W/\"66f69a91455179acce3f87b54b5b6bd4\"",
    "last-modified": "Tue, 20 Oct 2020 14:13:57 GMT",
    "content-encoding": "br",
    "vary": "Accept-Encoding",
    "x-cache": "Miss from cloudfront",
    "via": "1.1 d331d277ec81e476ff09fa9d30df05d0.cloudfront.net (CloudFront)",
    "x-amz-cf-pop": "TXL52-C1",
    "x-amz-cf-id": "sQiJel2FwvpEk3txpo9hWyX0RE76_gNwaeEyabfI4-5sBja9a0BqWw=="
  }
}