{
  "data": {
    "adult": false,
    "backdrop_path": "/xmFmlYj7tmUrkI3lztP6Zxh3u9G.jpg",
    "belongs_to_collection": null,
    "budget": 7000000,
    "genres": [
      {
        "id": 18,
        "name": "Drama"
      }
    ],
    "homepage": "",
    "id": 12400,
    "imdb_id": "tt1012804",
    "original_language": "en",
    "original_title": "Redbelt",
    "overview": "Is there room for principle in Los Angeles? Mike Terry teaches jujitsu and barely makes ends meet. His Brazilian wife, whose family promotes fights, wants to see Mike in the ring making money, but to him competition is degrading. A woman sideswipes Mike's car and then, after an odd sequence of events, shoots out the studio's window. Later that evening, Mike rescues an action movie star in a fistfight at a bar. In return, the actor befriends Mike, gives him a gift, offers him work on his newest film, and introduces Mike's wife to his own - the women initiate business dealings. Then, things go sour all at once, Mike's debts mount, and going into the ring may be his only option.",
    "popularity": 12.686,
    "poster_path": "/uGVI6C2ABVu0H23HtsAxApPpdXE.jpg",
    "production_companies": [
      {
        "id": 58,
        "logo_path": "/voYCwlBHJQANtjvm5MNIkCF1dDH.png",
        "name": "Sony Pictures Classics",
        "origin_country": "US"
      }
    ],
    "production_countries": [
      {
        "iso_3166_1": "US",
        "name": "United States of America"
      }
    ],
    "release_date": "2008-04-07",
    "revenue": 0,
    "runtime": 99,
    "spoken_languages": [
      {
        "iso_639_1": "en",
        "name": "English"
      }
    ],
    "status": "Released",
    "tagline": "There's always a way out. You just have to find it.",
    "title": "Redbelt",
    "video": false,
    "vote_average": 6.3,
    "vote_count": 158
  },
  "headers": {
    "content-type": "application/json;charset=utf-8",
    "transfer-encoding": "chunked",
    "connection": "close",
    "date": "Mon, 26 Oct 2020 16:30:43 GMT",
    "server": "openresty",
    "access-control-allow-origin": "*",
    "access-control-allow-methods": "GET, HEAD, POST, PUT, DELETE, OPTIONS",
    "access-control-expose-headers": "ETag, X-RateLimit-Limit, X-RateLimit-Remaining, X-RateLimit-Reset, Retry-After, Content-Length, Content-Range",
    "cache-control": "public, max-age=21600",
    "x-memc": "MISS, STORE",
    "x-memc-key": "0b1d4edc72e049daad535d53ee6ef234",
    "x-memc-age": "0",
    "x-memc-expires": "21600",
    "last-modified": "2019-06-21 11:58:11 +0000",
    "content-encoding": "br",
    "vary": "Accept-Encoding",
    "x-cache": "Miss from cloudfront",
    "via": "1.1 d5fb859c39a16d7f218b4c7fb1528ad6.cloudfront.net (CloudFront)",
    "x-amz-cf-pop": "FRA6-C1",
    "x-amz-cf-id": "UmF31epBP-MFZuJdwnvlmk_n5lQZicFQRuJnDseuS3rAyz6Eepy1WQ=="
  }
}