{
  "data": {
    "adult": false,
    "backdrop_path": "/czuOy8Mk7ihfymoiYX0CN4U1A8I.jpg",
    "belongs_to_collection": null,
    "budget": 5000000,
    "genres": [
      {
        "id": 80,
        "name": "Crime"
      },
      {
        "id": 18,
        "name": "Drama"
      },
      {
        "id": 53,
        "name": "Thriller"
      }
    ],
    "homepage": "",
    "id": 11826,
    "imdb_id": "tt0203119",
    "original_language": "en",
    "original_title": "Sexy Beast",
    "overview": "Ex-safecracker Gal Dove has served his time behind bars and is blissfully retired to a Spanish villa paradise with a wife he adores. The idyll is shattered by the arrival of his nemesis Don Logan, intent on persuading Gal to return to London for one last big job. Desperate not to sacrifice his enchanted existence, Dove is drawn into a shocking battle of wills with Logan, and takes part in a sensational underwater heist, risking everything to protect the woman he loves.",
    "popularity": 10.509,
    "poster_path": "/l8lQFhRzZo5pG8ZA7PokbXqOmG6.jpg",
    "production_companies": [
      {
        "id": 43,
        "logo_path": "/4RgIPr55kBakgupWkzdDxqXJEqr.png",
        "name": "Fox Searchlight Pictures",
        "origin_country": "US"
      },
      {
        "id": 4169,
        "logo_path": null,
        "name": "Kanzaman",
        "origin_country": "ES"
      },
      {
        "id": 6705,
        "logo_path": "/e8EXNSfwr5E9d3TR8dHKbQnQK4W.png",
        "name": "Film4 Productions",
        "origin_country": "GB"
      },
      {
        "id": 11561,
        "logo_path": "/8HB3TFUeo83keAPHfFfrNtN2MmA.png",
        "name": "Recorded Picture Company",
        "origin_country": "GB"
      }
    ],
    "production_countries": [
      {
        "iso_3166_1": "ES",
        "name": "Spain"
      },
      {
        "iso_3166_1": "GB",
        "name": "United Kingdom"
      }
    ],
    "release_date": "2001-01-12",
    "revenue": 0,
    "runtime": 89,
    "spoken_languages": [
      {
        "iso_639_1": "en",
        "name": "English"
      }
    ],
    "status": "Released",
    "tagline": "There's a bit of the beast in all of us.",
    "title": "Sexy Beast",
    "video": false,
    "vote_average": 6.9,
    "vote_count": 446
  },
  "headers": {
    "content-type": "application/json;charset=utf-8",
    "transfer-encoding": "chunked",
    "connection": "close",
    "date": "Mon, 26 Oct 2020 16:24:42 GMT",
    "server": "openresty",
    "access-control-allow-origin": "*",
    "access-control-allow-methods": "GET, HEAD, POST, PUT, DELETE, OPTIONS",
    "access-control-expose-headers": "ETag, X-RateLimit-Limit, X-RateLimit-Remaining, X-RateLimit-Reset, Retry-After, Content-Length, Content-Range",
    "cache-control": "public, max-age=21600",
    "x-memc": "HIT",
    "x-memc-key": "625c1f6ce95ced99587d4dfbbf2f59ae",
    "x-memc-age": "8649",
    "x-memc-expires": "12951",
    "etag": "W/\"2e883526787fdb95b14cd6631264b8f2\"",
    "last-modified": "Mon, 26 Oct 2020 16:24:42 GMT",
    "content-encoding": "br",
    "vary": "Accept-Encoding",
    "x-cache": "Miss from cloudfront",
    "via": "1.1 2f0580a0593ad9d3fb82aee9226d8179.cloudfront.net (CloudFront)",
    "x-amz-cf-pop": "FRA6-C1",
    "x-amz-cf-id": "vQWp4cLF0FQPBcSd9MF-P-cQ8oqqYEtK73QrFZJz8VcUN-cceNAplg=="
  }
}