{
  "data": {
    "adult": false,
    "backdrop_path": null,
    "belongs_to_collection": null,
    "budget": 0,
    "genres": [
      {
        "id": 99,
        "name": "Documentary"
      },
      {
        "id": 10402,
        "name": "Music"
      }
    ],
    "homepage": "http://www.soundcitymovie.com",
    "id": 157117,
    "imdb_id": "tt2306745",
    "original_language": "en",
    "original_title": "Sound City",
    "overview": "The history of Sound City and their huge recording device; exploring how digital change has allowed 'people that have no place' in music to become stars. It follows former Nirvana drummer and Foo Fighter David Grohl as he attempts to resurrect the studio back to former glories.",
    "popularity": 8.672,
    "poster_path": "/zvAnlF6COZbKdDDsf6EVyeBUV3S.jpg",
    "production_companies": [
      {
        "id": 48176,
        "logo_path": null,
        "name": "Roswell Films",
        "origin_country": ""
      },
      {
        "id": 48177,
        "logo_path": null,
        "name": "Therapy Content",
        "origin_country": ""
      }
    ],
    "production_countries": [
      {
        "iso_3166_1": "US",
        "name": "United States of America"
      }
    ],
    "release_date": "2013-01-18",
    "revenue": 0,
    "runtime": 106,
    "spoken_languages": [
      {
        "iso_639_1": "en",
        "name": "English"
      }
    ],
    "status": "Released",
    "tagline": "That board. That room. That is Sound City.",
    "title": "Sound City",
    "video": false,
    "vote_average": 7.4,
    "vote_count": 156
  },
  "headers": {
    "content-type": "application/json;charset=utf-8",
    "transfer-encoding": "chunked",
    "connection": "close",
    "date": "Tue, 20 Oct 2020 14:14:44 GMT",
    "server": "openresty",
    "access-control-allow-origin": "*",
    "access-control-allow-methods": "GET, HEAD, POST, PUT, DELETE, OPTIONS",
    "access-control-expose-headers": "ETag, X-RateLimit-Limit, X-RateLimit-Remaining, X-RateLimit-Reset, Retry-After, Content-Length, Content-Range",
    "cache-control": "public, max-age=21600",
    "x-memc": "MISS, STORE",
    "x-memc-key": "dfac9ba68280cd21e0336e80cba53d60",
    "x-memc-age": "0",
    "x-memc-expires": "21600",
    "last-modified": "2020-02-08 10:52:09 +0000",
    "content-encoding": "br",
    "vary": "Accept-Encoding",
    "x-cache": "Miss from cloudfront",
    "via": "1.1 81db6db0bc548ca5046f3395364a3667.cloudfront.net (CloudFront)",
    "x-amz-cf-pop": "TXL52-C1",
    "x-amz-cf-id": "pRDtiPqYX-tw8q0LBnYmgQsjOfli8Cig-piAlj_knzUhsMVRWXMHKw=="
  }
}