{
  "data": {
    "adult": false,
    "backdrop_path": "/eidO9z8CjyVjD2Rs48JXjFUFR8s.jpg",
    "belongs_to_collection": {
      "id": 43064,
      "name": "Speed Collection",
      "poster_path": "/nK6q8iJYl39vVq8vmwR78CUDQp0.jpg",
      "backdrop_path": "/5YDT5pRGMvuOqOk7SWBq8HBrbGm.jpg"
    },
    "budget": 30000000,
    "genres": [
      {
        "id": 28,
        "name": "Action"
      },
      {
        "id": 12,
        "name": "Adventure"
      },
      {
        "id": 80,
        "name": "Crime"
      }
    ],
    "homepage": "http://www.20thcenturystudios.com/movies/speed",
    "id": 1637,
    "imdb_id": "tt0111257",
    "original_language": "en",
    "original_title": "Speed",
    "overview": "Los Angeles SWAT cop Jack Traven is up against bomb expert Howard Payne, who's after major ransom money. First it's a rigged elevator in a very tall building. Then it's a rigged bus--if it slows, it will blow, bad enough any day, but a nightmare in LA traffic. And that's still not the end.",
    "popularity": 19.202,
    "poster_path": "/o1Zs7VaS9y2GYH9CLeWxaVLWd3x.jpg",
    "production_companies": [
      {
        "id": 25,
        "logo_path": "/qZCc1lty5FzX30aOCVRBLzaVmcp.png",
        "name": "20th Century Fox",
        "origin_country": "US"
      },
      {
        "id": 1557,
        "logo_path": "/ccz9bqCu3jSFKbPFnfWmjAKZLBL.png",
        "name": "The Mark Gordon Company",
        "origin_country": "US"
      }
    ],
    "production_countries": [
      {
        "iso_3166_1": "US",
        "name": "United States of America"
      }
    ],
    "release_date": "1994-06-09",
    "revenue": 350448145,
    "runtime": 116,
    "spoken_languages": [
      {
        "iso_639_1": "en",
        "name": "English"
      }
    ],
    "status": "Released",
    "tagline": "Get ready for rush hour",
    "title": "Speed",
    "video": false,
    "vote_average": 7,
    "vote_count": 3970
  },
  "headers": {
    "content-type": "application/json;charset=utf-8",
    "transfer-encoding": "chunked",
    "connection": "close",
    "date": "Tue, 20 Oct 2020 14:26:04 GMT",
    "server": "openresty",
    "access-control-allow-origin": "*",
    "access-control-allow-methods": "GET, HEAD, POST, PUT, DELETE, OPTIONS",
    "access-control-expose-headers": "ETag, X-RateLimit-Limit, X-RateLimit-Remaining, X-RateLimit-Reset, Retry-After, Content-Length, Content-Range",
    "cache-control": "public, max-age=21600",
    "x-memc": "HIT",
    "x-memc-key": "86cfa2e23ca0685edaa9df1e846b936f",
    "x-memc-age": "13590",
    "x-memc-expires": "8010",
    "etag": "W/\"a49f4c00dcd032a65ff5557016588ec7\"",
    "last-modified": "Tue, 20 Oct 2020 14:26:04 GMT",
    "content-encoding": "br",
    "vary": "Accept-Encoding",
    "x-cache": "Miss from cloudfront",
    "via": "1.1 aec69d2871c7aeb74988020f07480fa4.cloudfront.net (CloudFront)",
    "x-amz-cf-pop": "TXL52-C1",
    "x-amz-cf-id": "5CgVSdyzlnMzEWyr9QaKmyIBexRhqzdSSV2sgGU1I7RLz4nH35-3Sg=="
  }
}