{
  "data": {
    "adult": false,
    "backdrop_path": "/5myQbDzw3l8K9yofUXRJ4UTVgam.jpg",
    "belongs_to_collection": {
      "id": 531241,
      "name": "Spider-Man (Avengers) Collection",
      "poster_path": "/nogV4th2P5QWYvQIMiWHj4CFLU9.jpg",
      "backdrop_path": "/AvnqpRwlEaYNVL6wzC4RN94EdSd.jpg"
    },
    "budget": 160000000,
    "genres": [
      {
        "id": 28,
        "name": "Action"
      },
      {
        "id": 12,
        "name": "Adventure"
      },
      {
        "id": 878,
        "name": "Science Fiction"
      }
    ],
    "homepage": "https://www.marvel.com/movies/spider-man-far-from-home",
    "id": 429617,
    "imdb_id": "tt6320628",
    "original_language": "en",
    "original_title": "Spider-Man: Far from Home",
    "overview": "Peter Parker and his friends go on a summer trip to Europe. However, they will hardly be able to rest - Peter will have to agree to help Nick Fury uncover the mystery of creatures that cause natural disasters and destruction throughout the continent.",
    "popularity": 221.057,
    "poster_path": "/4q2NNj4S5dG2RLF9CpXsej7yXl.jpg",
    "production_companies": [
      {
        "id": 420,
        "logo_path": "/hUzeosd33nzE5MCNsZxCGEKTXaQ.png",
        "name": "Marvel Studios",
        "origin_country": "US"
      },
      {
        "id": 5,
        "logo_path": "/71BqEFAF4V3qjjMPCpLuyJFB9A.png",
        "name": "Columbia Pictures",
        "origin_country": "US"
      },
      {
        "id": 84041,
        "logo_path": "/XmHMPGzdI5c4WGX1YlxU4s2v7T.png",
        "name": "Pascal Pictures",
        "origin_country": "US"
      },
      {
        "id": 34,
        "logo_path": "/GagSvqWlyPdkFHMfQ3pNq6ix9P.png",
        "name": "Sony Pictures",
        "origin_country": "US"
      },
      {
        "id": 86561,
        "logo_path": null,
        "name": "Stereo D",
        "origin_country": "US"
      }
    ],
    "production_countries": [
      {
        "iso_3166_1": "US",
        "name": "United States of America"
      }
    ],
    "release_date": "2019-06-28",
    "revenue": 1131927996,
    "runtime": 129,
    "spoken_languages": [
      {
        "iso_639_1": "cs",
        "name": "Český"
      },
      {
        "iso_639_1": "nl",
        "name": "Nederlands"
      },
      {
        "iso_639_1": "en",
        "name": "English"
      },
      {
        "iso_639_1": "de",
        "name": "Deutsch"
      },
      {
        "iso_639_1": "it",
        "name": "Italiano"
      }
    ],
    "status": "Released",
    "tagline": "It’s time to step up.",
    "title": "Spider-Man: Far from Home",
    "video": false,
    "vote_average": 7.6,
    "vote_count": 8508
  },
  "headers": {
    "content-type": "application/json;charset=utf-8",
    "transfer-encoding": "chunked",
    "connection": "close",
    "date": "Tue, 20 Oct 2020 14:16:38 GMT",
    "server": "openresty",
    "access-control-allow-origin": "*",
    "access-control-allow-methods": "GET, HEAD, POST, PUT, DELETE, OPTIONS",
    "access-control-expose-headers": "ETag, X-RateLimit-Limit, X-RateLimit-Remaining, X-RateLimit-Reset, Retry-After, Content-Length, Content-Range",
    "cache-control": "public, max-age=21600",
    "x-memc": "HIT",
    "x-memc-key": "39b18c9c71ae43385c04aa04b5ffc344",
    "x-memc-age": "602",
    "x-memc-expires": "20998",
    "etag": "W/\"e8a6d1f191523c967151b09f44f6dbea\"",
    "last-modified": "Tue, 20 Oct 2020 14:16:38 GMT",
    "content-encoding": "br",
    "vary": "Accept-Encoding",
    "x-cache": "Miss from cloudfront",
    "via": "1.1 2d69f677a4a0e3e7eefdf9d24bd43661.cloudfront.net (CloudFront)",
    "x-amz-cf-pop": "TXL52-C1",
    "x-amz-cf-id": "FXp2pZZHoTD0heFch1MlEbcwF_ytdXMpg8dIJXzHpDicB9ojlUHC2g=="
  }
}