{
  "data": {
    "adult": false,
    "backdrop_path": "/9pkZesKMnblFfKxEhQx45YQ2kIe.jpg",
    "belongs_to_collection": null,
    "budget": 9000000,
    "genres": [
      {
        "id": 27,
        "name": "Horror"
      },
      {
        "id": 53,
        "name": "Thriller"
      }
    ],
    "homepage": "http://www.splitmovie.com/",
    "id": 381288,
    "imdb_id": "tt4972582",
    "original_language": "en",
    "original_title": "Split",
    "overview": "Though Kevin has evidenced 23 personalities to his trusted psychiatrist, Dr. Fletcher, there remains one still submerged who is set to materialize and dominate all the others. Compelled to abduct three teenage girls led by the willful, observant Casey, Kevin reaches a war for survival among all of those contained within him — as well as everyone around him — as the walls between his compartments shatter apart.",
    "popularity": 53.422,
    "poster_path": "/kBvO58pt13dgYImjZNjq6QiOT8n.jpg",
    "production_companies": [
      {
        "id": 33,
        "logo_path": "/8lvHyhjr8oUKOOy2dKXoALWKdp0.png",
        "name": "Universal Pictures",
        "origin_country": "US"
      },
      {
        "id": 12236,
        "logo_path": "/uV6QBPdn3MjQzAFdgEel6od7geg.png",
        "name": "Blinding Edge Pictures",
        "origin_country": "US"
      },
      {
        "id": 3172,
        "logo_path": "/kDedjRZwO8uyFhuHamomOhN6fzG.png",
        "name": "Blumhouse Productions",
        "origin_country": "US"
      }
    ],
    "production_countries": [
      {
        "iso_3166_1": "US",
        "name": "United States of America"
      }
    ],
    "release_date": "2017-01-09",
    "revenue": 278454358,
    "runtime": 117,
    "spoken_languages": [
      {
        "iso_639_1": "en",
        "name": "English"
      }
    ],
    "status": "Released",
    "tagline": "Kevin has 23 distinct personalities. The 24th is about to be unleashed.",
    "title": "Split",
    "video": false,
    "vote_average": 7.3,
    "vote_count": 12958
  },
  "headers": {
    "content-type": "application/json;charset=utf-8",
    "transfer-encoding": "chunked",
    "connection": "close",
    "date": "Tue, 20 Oct 2020 14:28:51 GMT",
    "server": "openresty",
    "access-control-allow-origin": "*",
    "access-control-allow-methods": "GET, HEAD, POST, PUT, DELETE, OPTIONS",
    "access-control-expose-headers": "ETag, X-RateLimit-Limit, X-RateLimit-Remaining, X-RateLimit-Reset, Retry-After, Content-Length, Content-Range",
    "cache-control": "public, max-age=21600",
    "x-memc": "HIT",
    "x-memc-key": "75948b92531d7ad3f22501c462a0c7ea",
    "x-memc-age": "15722",
    "x-memc-expires": "5878",
    "etag": "W/\"7de670ac6401bb1d570f46fb800f629d\"",
    "last-modified": "Tue, 20 Oct 2020 14:28:51 GMT",
    "content-encoding": "br",
    "vary": "Accept-Encoding",
    "x-cache": "Miss from cloudfront",
    "via": "1.1 25a04f62bad18c15d2a9bb2fa8af2af0.cloudfront.net (CloudFront)",
    "x-amz-cf-pop": "TXL52-C1",
    "x-amz-cf-id": "HcrMQYPTt4LbagtlVW-oOm1MDsCqQy1KGonNRVOUkkRyLauIY-ZhhA=="
  }
}