{
  "data": {
    "adult": false,
    "backdrop_path": "/lAJpYAepH7bic2TmE7ZP8q404P4.jpg",
    "belongs_to_collection": null,
    "budget": 24000000,
    "genres": [
      {
        "id": 35,
        "name": "Comedy"
      },
      {
        "id": 10752,
        "name": "War"
      }
    ],
    "homepage": "http://www.themenwhostareatgoatsmovie.com/",
    "id": 10313,
    "imdb_id": "tt1234548",
    "original_language": "en",
    "original_title": "The Men Who Stare at Goats",
    "overview": "A reporter in Iraq might just have the story of a lifetime when he meets Lyn Cassady, a guy who claims to be a former member of the U.S. Army's New Earth Army, a unit that employs paranormal powers in their missions.",
    "popularity": 13.785,
    "poster_path": "/5boJKypPQmgABssbKOk2RvsCnSv.jpg",
    "production_companies": [
      {
        "id": 2054,
        "logo_path": null,
        "name": "Ruby Films",
        "origin_country": ""
      },
      {
        "id": 288,
        "logo_path": "/wdmwQuV4R1MIr8A78izZkC184uC.png",
        "name": "BBC Films",
        "origin_country": "GB"
      },
      {
        "id": 1782,
        "logo_path": "/d1mlUfuG0NoQ4x0C7bK80wLGWA1.png",
        "name": "Smoke House Pictures",
        "origin_country": "US"
      }
    ],
    "production_countries": [
      {
        "iso_3166_1": "GB",
        "name": "United Kingdom"
      },
      {
        "iso_3166_1": "US",
        "name": "United States of America"
      }
    ],
    "release_date": "2009-10-17",
    "revenue": 68729358,
    "runtime": 93,
    "spoken_languages": [
      {
        "iso_639_1": "en",
        "name": "English"
      }
    ],
    "status": "Released",
    "tagline": "No goats. No glory.",
    "title": "The Men Who Stare at Goats",
    "video": false,
    "vote_average": 6,
    "vote_count": 1564
  },
  "headers": {
    "content-type": "application/json;charset=utf-8",
    "transfer-encoding": "chunked",
    "connection": "close",
    "date": "Tue, 20 Oct 2020 14:06:57 GMT",
    "server": "openresty",
    "access-control-allow-origin": "*",
    "access-control-allow-methods": "GET, HEAD, POST, PUT, DELETE, OPTIONS",
    "access-control-expose-headers": "ETag, X-RateLimit-Limit, X-RateLimit-Remaining, X-RateLimit-Reset, Retry-After, Content-Length, Content-Range",
    "cache-control": "public, max-age=21600",
    "x-memc": "HIT",
    "x-memc-key": "7bdec5965c0b491c32b8a158f40349a0",
    "x-memc-age": "7946",
    "x-memc-expires": "13654",
    "etag": "W/\"1d15277f087b174fc5ac7391c28539c7\"",
    "last-modified": "Tue, 20 Oct 2020 14:06:57 GMT",
    "content-encoding": "br",
    "vary": "Accept-Encoding",
    "x-cache": "Miss from cloudfront",
    "via": "1.1 3b9e149724e93026c0277288bbe3906a.cloudfront.net (CloudFront)",
    "x-amz-cf-pop": "TXL52-C1",
    "x-amz-cf-id": "Xz_wjYe4sLi-n8anQJSlI3mfnMjxudu17DhORRGgXlUmtnzC1RdYXw=="
  }
}