{
  "data": {
    "adult": false,
    "backdrop_path": "/owQeoB1Rqu4dKlqfZvJE1eHa33Q.jpg",
    "belongs_to_collection": null,
    "budget": 0,
    "genres": [
      {
        "id": 12,
        "name": "Adventure"
      },
      {
        "id": 35,
        "name": "Comedy"
      },
      {
        "id": 80,
        "name": "Crime"
      }
    ],
    "homepage": "",
    "id": 20873,
    "imdb_id": "tt0062759",
    "original_language": "ru",
    "original_title": "Бриллиантовая рука",
    "overview": "In the southern town, a gang of \"currency traders\" is operating, led by the Chief and his assistant Kozodoyev. A modest Soviet clerk and an exemplary family man Semyon Semyonovich Gorbunkov goes on a foreign cruise on a motor ship, on which Kozodoyev also sailed, who must pick up diamonds in one of the eastern cities and transport them in a plaster hand. But due to a misunderstanding, instead of a swindler, an unsuspecting Gorbunkov falls in the appointed place, and a precious plaster is imposed on him. That's where it all starts...",
    "popularity": 7.273,
    "poster_path": "/iwVRDsZAuJmulnPKeYxhezzpr9A.jpg",
    "production_companies": [
      {
        "id": 344,
        "logo_path": "/xenuUvcunUNpbaDOYGhWZERaym7.png",
        "name": "Mosfilm",
        "origin_country": "RU"
      }
    ],
    "production_countries": [
      {
        "iso_3166_1": "SU",
        "name": "Soviet Union"
      }
    ],
    "release_date": "1968-02-02",
    "revenue": 0,
    "runtime": 100,
    "spoken_languages": [
      {
        "iso_639_1": "ru",
        "name": "Pусский"
      }
    ],
    "status": "Released",
    "tagline": "A cinematographic novel in 2 parts from the life of smugglers",
    "title": "The Diamond Arm",
    "video": false,
    "vote_average": 7.9,
    "vote_count": 153
  },
  "headers": {
    "content-type": "application/json;charset=utf-8",
    "transfer-encoding": "chunked",
    "connection": "close",
    "date": "Mon, 26 Oct 2020 16:24:10 GMT",
    "server": "openresty",
    "access-control-allow-origin": "*",
    "access-control-allow-methods": "GET, HEAD, POST, PUT, DELETE, OPTIONS",
    "access-control-expose-headers": "ETag, X-RateLimit-Limit, X-RateLimit-Remaining, X-RateLimit-Reset, Retry-After, Content-Length, Content-Range",
    "cache-control": "public, max-age=21600",
    "x-memc": "MISS, STORE",
    "x-memc-key": "ad892eeaa116e6234e3144b919a9d535",
    "x-memc-age": "0",
    "x-memc-expires": "21600",
    "last-modified": "2020-08-11 21:43:53 +0000",
    "content-encoding": "br",
    "vary": "Accept-Encoding",
    "x-cache": "Miss from cloudfront",
    "via": "1.1 21da0a66bafe2c8de8be4a4d8039346b.cloudfront.net (CloudFront)",
    "x-amz-cf-pop": "FRA6-C1",
    "x-amz-cf-id": "TQ6m53cEbBNeUg2NMkZfWo_pD_JXlnBux0fv2tuwEGWvmx09RKrWcw=="
  }
}