{
  "data": {
    "adult": false,
    "backdrop_path": "/o1rvQN3kIRYxzEISg1q5fH5DLQ1.jpg",
    "belongs_to_collection": null,
    "budget": 100000000,
    "genres": [
      {
        "id": 53,
        "name": "Thriller"
      },
      {
        "id": 80,
        "name": "Crime"
      },
      {
        "id": 28,
        "name": "Action"
      }
    ],
    "homepage": "http://www.sonypictures.com/movies/thetakingofpelham123/",
    "id": 18487,
    "imdb_id": "tt1111422",
    "original_language": "en",
    "original_title": "The Taking of Pelham 1 2 3",
    "overview": "Armed men hijack a New York City subway train, holding the passengers hostage in return for a ransom, and turning an ordinary day's work for dispatcher Walter Garber into a face-off with the mastermind behind the crime.",
    "popularity": 13.379,
    "poster_path": "/bNbyjzhzJVadpWIQPb57ddWWdWI.jpg",
    "production_companies": [
      {
        "id": 1423,
        "logo_path": "/9KSoL1oEQaBSPLwEhoZZRoxTzyx.png",
        "name": "Escape Artists",
        "origin_country": "US"
      },
      {
        "id": 5,
        "logo_path": "/71BqEFAF4V3qjjMPCpLuyJFB9A.png",
        "name": "Columbia Pictures",
        "origin_country": "US"
      },
      {
        "id": 7295,
        "logo_path": "/5MYE96QiE5a5oFhXxFb4y8ILSpw.png",
        "name": "Relativity Media",
        "origin_country": "US"
      },
      {
        "id": 1645,
        "logo_path": "/6Ry6uNBaa0IbbSs1XYIgX5DkA9r.png",
        "name": "Scott Free Productions",
        "origin_country": "GB"
      },
      {
        "id": 21,
        "logo_path": "/mjofSXiHpG5t6KYmU4l4FrUhT7m.png",
        "name": "Metro-Goldwyn-Mayer",
        "origin_country": "US"
      }
    ],
    "production_countries": [
      {
        "iso_3166_1": "US",
        "name": "United States of America"
      }
    ],
    "release_date": "2009-06-11",
    "revenue": 150166126,
    "runtime": 106,
    "spoken_languages": [
      {
        "iso_639_1": "en",
        "name": "English"
      }
    ],
    "status": "Released",
    "tagline": "I can't get it out of my head. I'm gonna die today.",
    "title": "The Taking of Pelham 1 2 3",
    "video": false,
    "vote_average": 6.3,
    "vote_count": 2131
  },
  "headers": {
    "content-type": "application/json;charset=utf-8",
    "transfer-encoding": "chunked",
    "connection": "close",
    "date": "Tue, 20 Oct 2020 14:24:48 GMT",
    "server": "openresty",
    "access-control-allow-origin": "*",
    "access-control-allow-methods": "GET, HEAD, POST, PUT, DELETE, OPTIONS",
    "access-control-expose-headers": "ETag, X-RateLimit-Limit, X-RateLimit-Remaining, X-RateLimit-Reset, Retry-After, Content-Length, Content-Range",
    "cache-control": "public, max-age=21600",
    "x-memc": "HIT",
    "x-memc-key": "0398958815993cf7474416bf302bf321",
    "x-memc-age": "3159",
    "x-memc-expires": "18441",
    "etag": "W/\"d8498a94aa4573baa90f64993dbb17b6\"",
    "last-modified": "Tue, 20 Oct 2020 14:24:48 GMT",
    "content-encoding": "br",
    "vary": "Accept-Encoding",
    "x-cache": "Miss from cloudfront",
    "via": "1.1 1d9f9231888e03b204a8691cc95e7c61.cloudfront.net (CloudFront)",
    "x-amz-cf-pop": "TXL52-C1",
    "x-amz-cf-id": "tehu7htI7lgPGnH3U40aP1tlFn3S9NiKsUZ7XIGMs3Pwq_HeFrqyaw=="
  }
}