{
  "data": {
    "adult": false,
    "backdrop_path": "/6exeovaF27FlGZTd7eUi5WMUUCr.jpg",
    "belongs_to_collection": {
      "id": 230,
      "name": "The Godfather Collection",
      "poster_path": "/9Baumh5J9N1nJUYzNkm0xsgjpwY.jpg",
      "backdrop_path": "/3WZTxpgscsmoUk81TuECXdFOD0R.jpg"
    },
    "budget": 54000000,
    "genres": [
      {
        "id": 80,
        "name": "Crime"
      },
      {
        "id": 18,
        "name": "Drama"
      },
      {
        "id": 53,
        "name": "Thriller"
      }
    ],
    "homepage": "http://www.imdb.com/title/tt0099674/",
    "id": 242,
    "imdb_id": "tt0099674",
    "original_language": "en",
    "original_title": "The Godfather: Part III",
    "overview": "In the midst of trying to legitimize his business dealings in 1979 New York and Italy, aging mafia don, Michael Corleone seeks forgiveness for his sins while taking a young protege under his wing.",
    "popularity": 22.893,
    "poster_path": "/1hdm3Axw9LjITbApvAXBbqO58zE.jpg",
    "production_companies": [
      {
        "id": 4,
        "logo_path": "/fycMZt242LVjagMByZOLUGbCvv3.png",
        "name": "Paramount",
        "origin_country": "US"
      }
    ],
    "production_countries": [
      {
        "iso_3166_1": "IT",
        "name": "Italy"
      },
      {
        "iso_3166_1": "US",
        "name": "United States of America"
      }
    ],
    "release_date": "1990-12-25",
    "revenue": 136766062,
    "runtime": 170,
    "spoken_languages": [
      {
        "iso_639_1": "en",
        "name": "English"
      },
      {
        "iso_639_1": "it",
        "name": "Italiano"
      },
      {
        "iso_639_1": "de",
        "name": "Deutsch"
      },
      {
        "iso_639_1": "la",
        "name": "Latin"
      }
    ],
    "status": "Released",
    "tagline": "All the power on earth can't change destiny.",
    "title": "The Godfather: Part III",
    "video": false,
    "vote_average": 7.4,
    "vote_count": 3922
  },
  "headers": {
    "content-type": "application/json;charset=utf-8",
    "transfer-encoding": "chunked",
    "connection": "close",
    "date": "Tue, 20 Oct 2020 14:17:16 GMT",
    "server": "openresty",
    "access-control-allow-origin": "*",
    "access-control-allow-methods": "GET, HEAD, POST, PUT, DELETE, OPTIONS",
    "access-control-expose-headers": "ETag, X-RateLimit-Limit, X-RateLimit-Remaining, X-RateLimit-Reset, Retry-After, Content-Length, Content-Range",
    "cache-control": "public, max-age=21600",
    "x-memc": "HIT",
    "x-memc-key": "62f49b34c6814dfe83a915abf5e2b3e7",
    "x-memc-age": "14678",
    "x-memc-expires": "6922",
    "etag": "W/\"0645b12624964d36d7c8569030de9fef\"",
    "last-modified": "Tue, 20 Oct 2020 14:17:15 GMT",
    "content-encoding": "br",
    "vary": "Accept-Encoding",
    "x-cache": "Miss from cloudfront",
    "via": "1.1 8a8ce1b655547c1da36b64e17700f010.cloudfront.net (CloudFront)",
    "x-amz-cf-pop": "TXL52-C1",
    "x-amz-cf-id": "DdAjMJL_EYZ3Udxqob9vA6ST46wQzUXRGyh1K8o_wZdIXjXRGYTn8Q=="
  }
}