{
  "data": {
    "adult": false,
    "backdrop_path": "/z8xwqTByXvBMRcYTDVvGL8rdNNX.jpg",
    "belongs_to_collection": null,
    "budget": 0,
    "genres": [
      {
        "id": 18,
        "name": "Drama"
      },
      {
        "id": 28,
        "name": "Action"
      },
      {
        "id": 35,
        "name": "Comedy"
      },
      {
        "id": 80,
        "name": "Crime"
      }
    ],
    "homepage": "",
    "id": 32081,
    "imdb_id": "tt0087932",
    "original_language": "en",
    "original_title": "The Pope of Greenwich Village",
    "overview": "Charlie and his troublesome cousin Paulie decide to steal $150000 in order to back a \"sure thing\" race horse that Paulie has inside information on. The aftermath of the robbery gets them into serious trouble with the local Mafia boss and the corrupt New York City police department.",
    "popularity": 6.468,
    "poster_path": "/sSGOyGY1GfYjvI70lJC0Gm8T82k.jpg",
    "production_companies": [
      {
        "id": 60,
        "logo_path": "/oJXpAs4I3W46e4dkaOEzCa4yBko.png",
        "name": "United Artists",
        "origin_country": "US"
      }
    ],
    "production_countries": [
      {
        "iso_3166_1": "US",
        "name": "United States of America"
      }
    ],
    "release_date": "1984-06-22",
    "revenue": 0,
    "runtime": 121,
    "spoken_languages": [
      {
        "iso_639_1": "en",
        "name": "English"
      }
    ],
    "status": "Released",
    "tagline": "Charlie and Paulie. Two dreamers fighting to get lucky.",
    "title": "The Pope of Greenwich Village",
    "video": false,
    "vote_average": 6.5,
    "vote_count": 72
  },
  "headers": {
    "content-type": "application/json;charset=utf-8",
    "transfer-encoding": "chunked",
    "connection": "close",
    "date": "Tue, 20 Oct 2020 14:25:48 GMT",
    "server": "openresty",
    "access-control-allow-origin": "*",
    "access-control-allow-methods": "GET, HEAD, POST, PUT, DELETE, OPTIONS",
    "access-control-expose-headers": "ETag, X-RateLimit-Limit, X-RateLimit-Remaining, X-RateLimit-Reset, Retry-After, Content-Length, Content-Range",
    "cache-control": "public, max-age=21600",
    "x-memc": "MISS, STORE",
    "x-memc-key": "3ae8f4e1df90fba1f8a87fc44d86df21",
    "x-memc-age": "0",
    "x-memc-expires": "21600",
    "last-modified": "2020-09-25 02:27:46 +0000",
    "content-encoding": "br",
    "vary": "Accept-Encoding",
    "x-cache": "Miss from cloudfront",
    "via": "1.1 9e9671d1669bd7a6c194fae423e5778d.cloudfront.net (CloudFront)",
    "x-amz-cf-pop": "TXL52-C1",
    "x-amz-cf-id": "fa5uoEUPqxEog_dBXrdsh5vj8WrSoDelHptay3rWg1eM3YqJDDw5wA=="
  }
}