{
  "data": {
    "adult": false,
    "backdrop_path": "/bxY7ve1LP8atCIuvr4jeeJMmU4w.jpg",
    "belongs_to_collection": null,
    "budget": 60000000,
    "genres": [
      {
        "id": 35,
        "name": "Comedy"
      },
      {
        "id": 18,
        "name": "Drama"
      }
    ],
    "homepage": "",
    "id": 37165,
    "imdb_id": "tt0120382",
    "original_language": "en",
    "original_title": "The Truman Show",
    "overview": "Truman Burbank is the star of The Truman Show, a 24-hour-a-day reality TV show that broadcasts every aspect of his life without his knowledge. His entire life has been an unending soap opera for consumption by the rest of the world. And everyone he knows, including his wife and his best friend is really an actor, paid to be part of his life.",
    "popularity": 24.719,
    "poster_path": "/jW8w2QZnCSRblYWPc5FKAkS1cal.jpg",
    "production_companies": [
      {
        "id": 4,
        "logo_path": "/fycMZt242LVjagMByZOLUGbCvv3.png",
        "name": "Paramount",
        "origin_country": "US"
      }
    ],
    "production_countries": [
      {
        "iso_3166_1": "US",
        "name": "United States of America"
      }
    ],
    "release_date": "1998-06-04",
    "revenue": 264118201,
    "runtime": 103,
    "spoken_languages": [
      {
        "iso_639_1": "en",
        "name": "English"
      }
    ],
    "status": "Released",
    "tagline": "On the air. Unaware.",
    "title": "The Truman Show",
    "video": false,
    "vote_average": 8.1,
    "vote_count": 12156
  },
  "headers": {
    "content-type": "application/json;charset=utf-8",
    "transfer-encoding": "chunked",
    "connection": "close",
    "date": "Mon, 26 Oct 2020 16:32:39 GMT",
    "server": "openresty",
    "access-control-allow-origin": "*",
    "access-control-allow-methods": "GET, HEAD, POST, PUT, DELETE, OPTIONS",
    "access-control-expose-headers": "ETag, X-RateLimit-Limit, X-RateLimit-Remaining, X-RateLimit-Reset, Retry-After, Content-Length, Content-Range",
    "cache-control": "public, max-age=21600",
    "x-memc": "HIT",
    "x-memc-key": "55845c27b4598b451c7e3986e8c35831",
    "x-memc-age": "2533",
    "x-memc-expires": "19067",
    "etag": "W/\"640fff26edffb40b88d4c90480addc98\"",
    "last-modified": "Mon, 26 Oct 2020 16:32:39 GMT",
    "content-encoding": "br",
    "vary": "Accept-Encoding",
    "x-cache": "Miss from cloudfront",
    "via": "1.1 8e04f5d6c745b231c10fce7c2aa9c70f.cloudfront.net (CloudFront)",
    "x-amz-cf-pop": "FRA6-C1",
    "x-amz-cf-id": "NMtoq5I6ZHAqCGuGx6I0Pv6G8l1mRSRIqgpSAws4Ot4QhnRglHtTjw=="
  }
}