{
  "data": {
    "adult": false,
    "backdrop_path": "/k3ydRJrHGn0Gh6XDBhvE2D71A7z.jpg",
    "belongs_to_collection": null,
    "budget": 0,
    "genres": [
      {
        "id": 35,
        "name": "Comedy"
      },
      {
        "id": 18,
        "name": "Drama"
      },
      {
        "id": 53,
        "name": "Thriller"
      }
    ],
    "homepage": "",
    "id": 41559,
    "imdb_id": "tt1230380",
    "original_language": "en",
    "original_title": "The Job",
    "overview": "A guy looking to find employment and marry the love of his life, gets in over his head when a fast-talking temp agent lands him a job.",
    "popularity": 4.272,
    "poster_path": "/vCevFesD50KvabFKshG2ge8e9kH.jpg",
    "production_companies": [
      {
        "id": 24352,
        "logo_path": null,
        "name": "Kiki Goshay Productions",
        "origin_country": ""
      }
    ],
    "production_countries": [
      {
        "iso_3166_1": "US",
        "name": "United States of America"
      }
    ],
    "release_date": "2009-09-26",
    "revenue": 0,
    "runtime": 99,
    "spoken_languages": [
      {
        "iso_639_1": "en",
        "name": "English"
      },
      {
        "iso_639_1": "es",
        "name": "Español"
      }
    ],
    "status": "Released",
    "tagline": "",
    "title": "The Job",
    "video": false,
    "vote_average": 4.6,
    "vote_count": 10
  },
  "headers": {
    "content-type": "application/json;charset=utf-8",
    "transfer-encoding": "chunked",
    "connection": "close",
    "date": "Mon, 26 Oct 2020 16:27:40 GMT",
    "server": "openresty",
    "access-control-allow-origin": "*",
    "access-control-allow-methods": "GET, HEAD, POST, PUT, DELETE, OPTIONS",
    "access-control-expose-headers": "ETag, X-RateLimit-Limit, X-RateLimit-Remaining, X-RateLimit-Reset, Retry-After, Content-Length, Content-Range",
    "cache-control": "public, max-age=21600",
    "x-memc": "MISS, STORE",
    "x-memc-key": "32fb57be79198353e7a4498b85a22b68",
    "x-memc-age": "0",
    "x-memc-expires": "21600",
    "last-modified": "2020-06-13 10:28:56 +0000",
    "content-encoding": "br",
    "vary": "Accept-Encoding",
    "x-cache": "Miss from cloudfront",
    "via": "1.1 1b412557b82dda96e078541f9ee8dfb2.cloudfront.net (CloudFront)",
    "x-amz-cf-pop": "FRA6-C1",
    "x-amz-cf-id": "FZ0G_gbqcbjJWxbCO4rT5zIX8BqL6rEtwJHvkxeKpFgyI7Maglxm-g=="
  }
}