{
  "data": {
    "adult": false,
    "backdrop_path": "/dH7ia3vtkYCa3CBvDnvVjqm9uiQ.jpg",
    "belongs_to_collection": null,
    "budget": 130000000,
    "genres": [
      {
        "id": 28,
        "name": "Action"
      },
      {
        "id": 9648,
        "name": "Mystery"
      },
      {
        "id": 878,
        "name": "Science Fiction"
      }
    ],
    "homepage": "https://www.warnerbros.com/movies/watchmen/",
    "id": 13183,
    "imdb_id": "tt0409459",
    "original_language": "en",
    "original_title": "Watchmen",
    "overview": "In a gritty and alternate 1985 the glory days of costumed vigilantes have been brought to a close by a government crackdown, but after one of the masked veterans is brutally murdered, an investigation into the killer is initiated. The reunited heroes set out to prevent their own destruction, but in doing so uncover a sinister plot that puts all of humanity in grave danger.",
    "popularity": 33.54,
    "poster_path": "/aZvOkdo203bm1kpcY0A0Tn074ER.jpg",
    "production_companies": [
      {
        "id": 429,
        "logo_path": "/2Tc1P3Ac8M479naPp1kYT3izLS5.png",
        "name": "DC Comics",
        "origin_country": "US"
      },
      {
        "id": 840,
        "logo_path": null,
        "name": "Lawrence Gordon Productions",
        "origin_country": ""
      },
      {
        "id": 923,
        "logo_path": "/5UQsZrfbfG2dYJbx8DxfoTr2Bvu.png",
        "name": "Legendary Pictures",
        "origin_country": "US"
      },
      {
        "id": 174,
        "logo_path": "/IuAlhI9eVC9Z8UQWOIDdWRKSEJ.png",
        "name": "Warner Bros. Pictures",
        "origin_country": "US"
      },
      {
        "id": 4,
        "logo_path": "/fycMZt242LVjagMByZOLUGbCvv3.png",
        "name": "Paramount",
        "origin_country": "US"
      },
      {
        "id": 9995,
        "logo_path": "/mAIGhOYhN4N2N0F7p4dbKhgXf3l.png",
        "name": "Cruel & Unusual Films",
        "origin_country": "US"
      }
    ],
    "production_countries": [
      {
        "iso_3166_1": "US",
        "name": "United States of America"
      }
    ],
    "release_date": "2009-03-05",
    "revenue": 185258983,
    "runtime": 163,
    "spoken_languages": [
      {
        "iso_639_1": "en",
        "name": "English"
      }
    ],
    "status": "Released",
    "tagline": "Justice is coming to all of us.  No matter what we do.",
    "title": "Watchmen",
    "video": false,
    "vote_average": 7.3,
    "vote_count": 6334
  },
  "headers": {
    "content-type": "application/json;charset=utf-8",
    "transfer-encoding": "chunked",
    "connection": "close",
    "date": "Mon, 26 Oct 2020 16:30:59 GMT",
    "server": "openresty",
    "access-control-allow-origin": "*",
    "access-control-allow-methods": "GET, HEAD, POST, PUT, DELETE, OPTIONS",
    "access-control-expose-headers": "ETag, X-RateLimit-Limit, X-RateLimit-Remaining, X-RateLimit-Reset, Retry-After, Content-Length, Content-Range",
    "cache-control": "public, max-age=21600",
    "x-memc": "HIT",
    "x-memc-key": "3739ab9dff0aa97146db69503552d6ff",
    "x-memc-age": "19647",
    "x-memc-expires": "1953",
    "etag": "W/\"1eed66551f01bba49dda6907e883bc48\"",
    "last-modified": "Mon, 26 Oct 2020 16:30:59 GMT",
    "content-encoding": "br",
    "vary": "Accept-Encoding",
    "x-cache": "Miss from cloudfront",
    "via": "1.1 c6b364b1181abfafd7a69f210841edca.cloudfront.net (CloudFront)",
    "x-amz-cf-pop": "FRA6-C1",
    "x-amz-cf-id": "1n2paVBifhqMGu-PcDwu-UxjBMBNGriMB6K_vH0Uf0jQiBP9mc03Mg=="
  }
}