{
  "data": {
    "adult": false,
    "backdrop_path": "/wvqdJLVh0mSblly7UnYFPEk04Wd.jpg",
    "belongs_to_collection": {
      "id": 453993,
      "name": "The Wolverine Collection",
      "poster_path": "/c18HVnKTybcAUYVQd8rOcdbqwY.jpg",
      "backdrop_path": "/hbNMx7sxxqvkX8rLOsTryiSrCPY.jpg"
    },
    "budget": 150000000,
    "genres": [
      {
        "id": 12,
        "name": "Adventure"
      },
      {
        "id": 28,
        "name": "Action"
      },
      {
        "id": 53,
        "name": "Thriller"
      },
      {
        "id": 878,
        "name": "Science Fiction"
      }
    ],
    "homepage": "http://www.x-menorigins.com/",
    "id": 2080,
    "imdb_id": "tt0458525",
    "original_language": "en",
    "original_title": "X-Men Origins: Wolverine",
    "overview": "After seeking to live a normal life, Logan sets out to avenge the death of his girlfriend by undergoing the mutant Weapon X program and becoming Wolverine.",
    "popularity": 4.675,
    "poster_path": "/8TItaEDL9lRCVcGMkYFluceD2Od.jpg",
    "production_companies": [
      {
        "id": 7505,
        "logo_path": "/837VMM4wOkODc1idNxGT0KQJlej.png",
        "name": "Marvel Entertainment",
        "origin_country": "US"
      },
      {
        "id": 431,
        "logo_path": null,
        "name": "The Donners' Company",
        "origin_country": "US"
      },
      {
        "id": 444,
        "logo_path": "/42UPdZl6B2cFXgNUASR8hSt9mpS.png",
        "name": "Dune Entertainment",
        "origin_country": "US"
      },
      {
        "id": 9076,
        "logo_path": null,
        "name": "Seed Productions",
        "origin_country": "US"
      },
      {
        "id": 9168,
        "logo_path": "/hQNXrYIuyLRxMSBuGHk0GX7CCBS.png",
        "name": "Bad Hat Harry Productions",
        "origin_country": "US"
      },
      {
        "id": 10893,
        "logo_path": null,
        "name": "Big Screen Productions",
        "origin_country": ""
      },
      {
        "id": 25,
        "logo_path": "/qZCc1lty5FzX30aOCVRBLzaVmcp.png",
        "name": "20th Century Fox",
        "origin_country": "US"
      }
    ],
    "production_countries": [
      {
        "iso_3166_1": "US",
        "name": "United States of America"
      }
    ],
    "release_date": "2009-04-28",
    "revenue": 373062864,
    "runtime": 107,
    "spoken_languages": [
      {
        "iso_639_1": "en",
        "name": "English"
      }
    ],
    "status": "Released",
    "tagline": "Witness the Origin.",
    "title": "X-Men Origins: Wolverine",
    "video": false,
    "vote_average": 6.2,
    "vote_count": 7761
  },
  "headers": {
    "content-type": "application/json;charset=utf-8",
    "transfer-encoding": "chunked",
    "connection": "close",
    "date": "Mon, 26 Oct 2020 16:31:25 GMT",
    "server": "openresty",
    "access-control-allow-origin": "*",
    "access-control-allow-methods": "GET, HEAD, POST, PUT, DELETE, OPTIONS",
    "access-control-expose-headers": "ETag, X-RateLimit-Limit, X-RateLimit-Remaining, X-RateLimit-Reset, Retry-After, Content-Length, Content-Range",
    "cache-control": "public, max-age=21600",
    "x-memc": "HIT",
    "x-memc-key": "c0a003288c3c1e84a1291d07708ef7e4",
    "x-memc-age": "21135",
    "x-memc-expires": "465",
    "etag": "W/\"be0e8aaa3aaab6581f54181eb4588cfd\"",
    "last-modified": "Mon, 26 Oct 2020 16:31:25 GMT",
    "content-encoding": "br",
    "vary": "Accept-Encoding",
    "x-cache": "Miss from cloudfront",
    "via": "1.1 2f0580a0593ad9d3fb82aee9226d8179.cloudfront.net (CloudFront)",
    "x-amz-cf-pop": "FRA6-C1",
    "x-amz-cf-id": "6i9QJjlDFFDVsmU_8B859O3KV_nYJlMgpLdD8wo7n6mfwZCzZphexw=="
  }
}